
[2022-05-19 16:02:46]  
--------------------- Función getUsuarioPorPin() ---------------------

Pin de usuario ingresado: 12345. Nombre: No existe. 
Mesa seleccionada: 1. 
Respuesta de búsqueda de empleado: . 
Tabla: . 


[2022-05-19 16:06:32]  
--------------------- Función getUsuarioPorPin() ---------------------

Pin de usuario ingresado: 221422. Nombre: Fresh. 
Mesa seleccionada: 1. 
Respuesta de búsqueda de empleado: 1. 
Tabla: . 


[2022-05-19 17:25:07]  
--------------------- Función getUsuarioPorPin() ---------------------

Pin de usuario ingresado: . Nombre: VALERIA CHANTES. 
Mesa seleccionada: 1. 
Respuesta de búsqueda de empleado: 1. 
Tabla: . 


[2022-05-19 17:25:18]  
--------------------- Función agregar_producto() ---------------------

Persona que ingresa: 25. Nombre: VALERIA CHANTES. 
Mesa seleccionada: 1. 
Id de Producto seleccionado: 37. 
Tabla: <tr><td>1</td><td>AGUA CIEL</td><td>20.00</td><td>20.00</td><td><button type='button' onclick='eliminar_producto_modal(37)' class='btn btn-sm mb-0 btn-outline-danger'><i class='ft-trash'></i></button> <button type='button' onclick='modificar_producto2(37,1)' class='btn btn-sm mb-0 btn-success btn-flat'><i class='ft-plus'></i></button><button type='button' onclick='modificar_producto_modal(37,0)' class='btn btn-sm mb-0 btn-info btn-flat'><i class='ft-minus'></i></button></td></tr>. 


[2022-05-19 17:25:27]  
--------------------- Función getUsuarioPorPin() ---------------------

Pin de usuario ingresado: . Nombre: VALERIA CHANTES. 
Mesa seleccionada: 1. 
Respuesta de búsqueda de empleado: 1. 
Tabla: <tr><td>1</td><td>AGUA CIEL</td><td>20.00</td><td>20.00</td><td><button type='button' onclick='eliminar_producto_modal(37)' class='btn btn-sm mb-0 btn-outline-danger'><i class='ft-trash'></i></button> <button type='button' onclick='modificar_producto2(37,1)' class='btn btn-sm mb-0 btn-success btn-flat'><i class='ft-plus'></i></button><button type='button' onclick='modificar_producto_modal(37,0)' class='btn btn-sm mb-0 btn-info btn-flat'><i class='ft-minus'></i></button></td></tr>. 


[2022-05-19 17:25:33]  
--------------------- Función getUsuarioPorPin() ---------------------

Pin de usuario ingresado: . Nombre: VALERIA CHANTES. 
Mesa seleccionada: 2. 
Respuesta de búsqueda de empleado: 1. 
Tabla: <tr><td>1</td><td>COCA COLA LATA</td><td>30.00</td><td>30.00</td><td><button type='button' onclick='eliminar_producto_modal(163)' class='btn btn-sm mb-0 btn-outline-danger'><i class='ft-trash'></i></button> <button type='button' onclick='modificar_producto2(163,1)' class='btn btn-sm mb-0 btn-success btn-flat'><i class='ft-plus'></i></button><button type='button' onclick='modificar_producto_modal(163,0)' class='btn btn-sm mb-0 btn-info btn-flat'><i class='ft-minus'></i></button></td></tr>. 


[2022-05-19 17:25:37]  
--------------------- Función getUsuarioPorPin() ---------------------

Pin de usuario ingresado: . Nombre: VALERIA CHANTES. 
Mesa seleccionada: 3. 
Respuesta de búsqueda de empleado: 1. 
Tabla: <tr><td>1</td><td>COCA COLA LATA</td><td>30.00</td><td>30.00</td><td><button type='button' onclick='eliminar_producto_modal(163)' class='btn btn-sm mb-0 btn-outline-danger'><i class='ft-trash'></i></button> <button type='button' onclick='modificar_producto2(163,1)' class='btn btn-sm mb-0 btn-success btn-flat'><i class='ft-plus'></i></button><button type='button' onclick='modificar_producto_modal(163,0)' class='btn btn-sm mb-0 btn-info btn-flat'><i class='ft-minus'></i></button></td></tr><tr><td>1</td><td>Aguas Frescas 1 litro</td><td>75.00</td><td>75.00</td><td><button type='button' onclick='eliminar_producto_modal(230)' class='btn btn-sm mb-0 btn-outline-danger'><i class='ft-trash'></i></button> <button type='button' onclick='modificar_producto2(230,1)' class='btn btn-sm mb-0 btn-success btn-flat'><i class='ft-plus'></i></button><button type='button' onclick='modificar_producto_modal(230,0)' class='btn btn-sm mb-0 btn-info btn-flat'><i class='ft-minus'></i></button></td></tr>. 


[2022-05-19 17:25:58]  
--------------------- Función getUsuarioPorPin() ---------------------

Pin de usuario ingresado: . Nombre: VALERIA CHANTES. 
Mesa seleccionada: 1. 
Respuesta de búsqueda de empleado: 1. 
Tabla: <tr><td>1</td><td>AGUA CIEL</td><td>20.00</td><td>20.00</td><td><button type='button' onclick='eliminar_producto_modal(37)' class='btn btn-sm mb-0 btn-outline-danger'><i class='ft-trash'></i></button> <button type='button' onclick='modificar_producto2(37,1)' class='btn btn-sm mb-0 btn-success btn-flat'><i class='ft-plus'></i></button><button type='button' onclick='modificar_producto_modal(37,0)' class='btn btn-sm mb-0 btn-info btn-flat'><i class='ft-minus'></i></button></td></tr>. 


[2022-05-19 17:34:54]  
--------------------- Función getUsuarioPorPin() ---------------------

Pin de usuario ingresado: . Nombre: VALERIA CHANTES. 
Mesa seleccionada: 1. 
Respuesta de búsqueda de empleado: 1. 
Tabla: <tr><td>1</td><td>AGUA CIEL</td><td>20.00</td><td>20.00</td><td><button type='button' onclick='eliminar_producto_modal(37)' class='btn btn-sm mb-0 btn-outline-danger'><i class='ft-trash'></i></button> <button type='button' onclick='modificar_producto2(37,1)' class='btn btn-sm mb-0 btn-success btn-flat'><i class='ft-plus'></i></button><button type='button' onclick='modificar_producto_modal(37,0)' class='btn btn-sm mb-0 btn-info btn-flat'><i class='ft-minus'></i></button></td></tr>. 


[2022-05-19 17:35:30]  
--------------------- Función eliminar_producto() ---------------------

Persona que ingresa: 25. Nombre: VALERIA CHANTES. 
Mesa seleccionada: 1. 
Registro eliminado: Producto Eliminado: 37. Nombre del Producto: AGUA CIEL. 
Tabla: . 


[2022-05-19 17:38:04]  
--------------------- Función getUsuarioPorPin() ---------------------

Pin de usuario ingresado: . Nombre: VALERIA CHANTES. 
Mesa seleccionada: 2. 
Respuesta de búsqueda de empleado: 1. 
Tabla: <tr><td>1</td><td>COCA COLA LATA</td><td>30.00</td><td>30.00</td><td><button type='button' onclick='eliminar_producto_modal(163)' class='btn btn-sm mb-0 btn-outline-danger'><i class='ft-trash'></i></button> <button type='button' onclick='modificar_producto2(163,1)' class='btn btn-sm mb-0 btn-success btn-flat'><i class='ft-plus'></i></button><button type='button' onclick='modificar_producto_modal(163,0)' class='btn btn-sm mb-0 btn-info btn-flat'><i class='ft-minus'></i></button></td></tr>. 


[2022-05-19 17:47:48]  
--------------------- Función getUsuarioPorPin() ---------------------

Pin de usuario ingresado: . Nombre: VALERIA CHANTES. 
Mesa seleccionada: 5. 
Respuesta de búsqueda de empleado: 1. 
Tabla: <tr><td>1</td><td>Papas a la Francesa</td><td>68.00</td><td>68.00</td><td><button type='button' onclick='eliminar_producto_modal(237)' class='btn btn-sm mb-0 btn-outline-danger'><i class='ft-trash'></i></button> <button type='button' onclick='modificar_producto2(237,1)' class='btn btn-sm mb-0 btn-success btn-flat'><i class='ft-plus'></i></button><button type='button' onclick='modificar_producto_modal(237,0)' class='btn btn-sm mb-0 btn-info btn-flat'><i class='ft-minus'></i></button></td></tr><tr><td>1</td><td>Aguas Frescas 1/2 litro</td><td>45.00</td><td>45.00</td><td><button type='button' onclick='eliminar_producto_modal(229)' class='btn btn-sm mb-0 btn-outline-danger'><i class='ft-trash'></i></button> <button type='button' onclick='modificar_producto2(229,1)' class='btn btn-sm mb-0 btn-success btn-flat'><i class='ft-plus'></i></button><button type='button' onclick='modificar_producto_modal(229,0)' class='btn btn-sm mb-0 btn-info btn-flat'><i class='ft-minus'></i></button></td></tr>. 


[2022-05-19 17:51:35]  
--------------------- Función eliminar_producto() ---------------------

Persona que ingresa: 25. Nombre: VALERIA CHANTES. 
Mesa seleccionada: 5. 
Registro eliminado: Producto Eliminado: 237. Nombre del Producto: Papas a la Francesa. 
Tabla: <tr><td>1</td><td>Aguas Frescas 1/2 litro</td><td>45.00</td><td>45.00</td><td><button type='button' onclick='eliminar_producto_modal(229)' class='btn btn-sm mb-0 btn-outline-danger'><i class='ft-trash'></i></button> <button type='button' onclick='modificar_producto2(229,1)' class='btn btn-sm mb-0 btn-success btn-flat'><i class='ft-plus'></i></button><button type='button' onclick='modificar_producto_modal(229,0)' class='btn btn-sm mb-0 btn-info btn-flat'><i class='ft-minus'></i></button></td></tr>. 


[2022-05-19 17:52:28]  
--------------------- Función getUsuarioPorPin() ---------------------

Pin de usuario ingresado: . Nombre: VALERIA CHANTES. 
Mesa seleccionada: 12. 
Respuesta de búsqueda de empleado: 1. 
Tabla: <tr><td>1</td><td>POWERADE FRUTAS</td><td>35.00</td><td>35.00</td><td><button type='button' onclick='eliminar_producto_modal(42)' class='btn btn-sm mb-0 btn-outline-danger'><i class='ft-trash'></i></button> <button type='button' onclick='modificar_producto2(42,1)' class='btn btn-sm mb-0 btn-success btn-flat'><i class='ft-plus'></i></button><button type='button' onclick='modificar_producto_modal(42,0)' class='btn btn-sm mb-0 btn-info btn-flat'><i class='ft-minus'></i></button></td></tr><tr><td>1</td><td>Panino Granja </td><td>119.00</td><td>119.00</td><td><button type='button' onclick='eliminar_producto_modal(259)' class='btn btn-sm mb-0 btn-outline-danger'><i class='ft-trash'></i></button> <button type='button' onclick='modificar_producto2(259,1)' class='btn btn-sm mb-0 btn-success btn-flat'><i class='ft-plus'></i></button><button type='button' onclick='modificar_producto_modal(259,0)' class='btn btn-sm mb-0 btn-info btn-flat'><i class='ft-minus'></i></button></td></tr><tr><td>1</td><td>Panino Fresh</td><td>160.00</td><td>160.00</td><td><button type='button' onclick='eliminar_producto_modal(242)' class='btn btn-sm mb-0 btn-outline-danger'><i class='ft-trash'></i></button> <button type='button' onclick='modificar_producto2(242,1)' class='btn btn-sm mb-0 btn-success btn-flat'><i class='ft-plus'></i></button><button type='button' onclick='modificar_producto_modal(242,0)' class='btn btn-sm mb-0 btn-info btn-flat'><i class='ft-minus'></i></button></td></tr><tr><td>1</td><td>Paninos BBQ</td><td>119.00</td><td>119.00</td><td><button type='button' onclick='eliminar_producto_modal(252)' class='btn btn-sm mb-0 btn-outline-danger'><i class='ft-trash'></i></button> <button type='button' onclick='modificar_producto2(252,1)' class='btn btn-sm mb-0 btn-success btn-flat'><i class='ft-plus'></i></button><button type='button' onclick='modificar_producto_modal(252,0)' class='btn btn-sm mb-0 btn-info btn-flat'><i class='ft-minus'></i></button></td></tr><tr><td>5</td><td>Aguas Frescas 1/2 litro</td><td>45.00</td><td>225.00</td><td><button type='button' onclick='eliminar_producto_modal(229)' class='btn btn-sm mb-0 btn-outline-danger'><i class='ft-trash'></i></button> <button type='button' onclick='modificar_producto2(229,1)' class='btn btn-sm mb-0 btn-success btn-flat'><i class='ft-plus'></i></button><button type='button' onclick='modificar_producto_modal(229,0)' class='btn btn-sm mb-0 btn-info btn-flat'><i class='ft-minus'></i></button></td></tr><tr><td>2</td><td>Papas Locas</td><td>70.00</td><td>140.00</td><td><button type='button' onclick='eliminar_producto_modal(236)' class='btn btn-sm mb-0 btn-outline-danger'><i class='ft-trash'></i></button> <button type='button' onclick='modificar_producto2(236,1)' class='btn btn-sm mb-0 btn-success btn-flat'><i class='ft-plus'></i></button><button type='button' onclick='modificar_producto_modal(236,0)' class='btn btn-sm mb-0 btn-info btn-flat'><i class='ft-minus'></i></button></td></tr><tr><td>2</td><td>COCA COLA LATA</td><td>30.00</td><td>60.00</td><td><button type='button' onclick='eliminar_producto_modal(163)' class='btn btn-sm mb-0 btn-outline-danger'><i class='ft-trash'></i></button> <button type='button' onclick='modificar_producto2(163,1)' class='btn btn-sm mb-0 btn-success btn-flat'><i class='ft-plus'></i></button><button type='button' onclick='modificar_producto_modal(163,0)' class='btn btn-sm mb-0 btn-info btn-flat'><i class='ft-minus'></i></button></td></tr>. 


[2022-05-19 18:00:22]  
--------------------- Función getUsuarioPorPin() ---------------------

Pin de usuario ingresado: . Nombre: VALERIA CHANTES. 
Mesa seleccionada: 12. 
Respuesta de búsqueda de empleado: 1. 
Tabla: <tr><td>1</td><td>POWERADE FRUTAS</td><td>35.00</td><td>35.00</td><td><button type='button' onclick='eliminar_producto_modal(42)' class='btn btn-sm mb-0 btn-outline-danger'><i class='ft-trash'></i></button> <button type='button' onclick='modificar_producto2(42,1)' class='btn btn-sm mb-0 btn-success btn-flat'><i class='ft-plus'></i></button><button type='button' onclick='modificar_producto_modal(42,0)' class='btn btn-sm mb-0 btn-info btn-flat'><i class='ft-minus'></i></button></td></tr><tr><td>1</td><td>Panino Granja </td><td>119.00</td><td>119.00</td><td><button type='button' onclick='eliminar_producto_modal(259)' class='btn btn-sm mb-0 btn-outline-danger'><i class='ft-trash'></i></button> <button type='button' onclick='modificar_producto2(259,1)' class='btn btn-sm mb-0 btn-success btn-flat'><i class='ft-plus'></i></button><button type='button' onclick='modificar_producto_modal(259,0)' class='btn btn-sm mb-0 btn-info btn-flat'><i class='ft-minus'></i></button></td></tr><tr><td>1</td><td>Panino Fresh</td><td>160.00</td><td>160.00</td><td><button type='button' onclick='eliminar_producto_modal(242)' class='btn btn-sm mb-0 btn-outline-danger'><i class='ft-trash'></i></button> <button type='button' onclick='modificar_producto2(242,1)' class='btn btn-sm mb-0 btn-success btn-flat'><i class='ft-plus'></i></button><button type='button' onclick='modificar_producto_modal(242,0)' class='btn btn-sm mb-0 btn-info btn-flat'><i class='ft-minus'></i></button></td></tr><tr><td>1</td><td>Paninos BBQ</td><td>119.00</td><td>119.00</td><td><button type='button' onclick='eliminar_producto_modal(252)' class='btn btn-sm mb-0 btn-outline-danger'><i class='ft-trash'></i></button> <button type='button' onclick='modificar_producto2(252,1)' class='btn btn-sm mb-0 btn-success btn-flat'><i class='ft-plus'></i></button><button type='button' onclick='modificar_producto_modal(252,0)' class='btn btn-sm mb-0 btn-info btn-flat'><i class='ft-minus'></i></button></td></tr><tr><td>5</td><td>Aguas Frescas 1/2 litro</td><td>45.00</td><td>225.00</td><td><button type='button' onclick='eliminar_producto_modal(229)' class='btn btn-sm mb-0 btn-outline-danger'><i class='ft-trash'></i></button> <button type='button' onclick='modificar_producto2(229,1)' class='btn btn-sm mb-0 btn-success btn-flat'><i class='ft-plus'></i></button><button type='button' onclick='modificar_producto_modal(229,0)' class='btn btn-sm mb-0 btn-info btn-flat'><i class='ft-minus'></i></button></td></tr><tr><td>2</td><td>Papas Locas</td><td>70.00</td><td>140.00</td><td><button type='button' onclick='eliminar_producto_modal(236)' class='btn btn-sm mb-0 btn-outline-danger'><i class='ft-trash'></i></button> <button type='button' onclick='modificar_producto2(236,1)' class='btn btn-sm mb-0 btn-success btn-flat'><i class='ft-plus'></i></button><button type='button' onclick='modificar_producto_modal(236,0)' class='btn btn-sm mb-0 btn-info btn-flat'><i class='ft-minus'></i></button></td></tr><tr><td>2</td><td>COCA COLA LATA</td><td>30.00</td><td>60.00</td><td><button type='button' onclick='eliminar_producto_modal(163)' class='btn btn-sm mb-0 btn-outline-danger'><i class='ft-trash'></i></button> <button type='button' onclick='modificar_producto2(163,1)' class='btn btn-sm mb-0 btn-success btn-flat'><i class='ft-plus'></i></button><button type='button' onclick='modificar_producto_modal(163,0)' class='btn btn-sm mb-0 btn-info btn-flat'><i class='ft-minus'></i></button></td></tr>. 

