
[2020-03-05 11:11:04]  
--------------------- Función getUsuarioPorPin() ---------------------

Pin de usuario ingresado: 0411. Nombre: PAMELA CRUZ ZAVALETA. 
Mesa seleccionada: 0. 
Respuesta de búsqueda de empleado: 1. 
Tabla: . 


[2020-03-05 11:11:16]  
--------------------- Función agregar_producto() ---------------------

Persona que ingresa: 74. Nombre: PAMELA CRUZ ZAVALETA. 
Mesa seleccionada: 0. 
Id de Producto seleccionado: 113. 
Tabla: <tr><td>1</td><td>REFRESCO</td><td>18.00</td><td>18.00</td><td><button type='button' onclick='eliminar_producto_modal(113)' class='btn btn-sm mb-0 btn-outline-danger'><i class='ft-trash'></i></button> <button type='button' onclick='modificar_producto2(113,1)' class='btn btn-sm mb-0 btn-success btn-flat'><i class='ft-plus'></i></button><button type='button' onclick='modificar_producto_modal(113,0)' class='btn btn-sm mb-0 btn-info btn-flat'><i class='ft-minus'></i></button></td></tr>. 


[2020-03-05 12:36:51]  
--------------------- Función getUsuarioPorPin() ---------------------

Pin de usuario ingresado: 041100. Nombre: No existe. 
Mesa seleccionada: 0. 
Respuesta de búsqueda de empleado: . 
Tabla: . 


[2020-03-05 12:36:54]  
--------------------- Función getUsuarioPorPin() ---------------------

Pin de usuario ingresado: 0411. Nombre: PAMELA CRUZ ZAVALETA. 
Mesa seleccionada: 0. 
Respuesta de búsqueda de empleado: 1. 
Tabla: . 


[2020-03-05 12:37:05]  
--------------------- Función agregar_producto() ---------------------

Persona que ingresa: 74. Nombre: PAMELA CRUZ ZAVALETA. 
Mesa seleccionada: 0. 
Id de Producto seleccionado: 170. 
Tabla: <tr><td>1</td><td>DELAWARE LATA</td><td>30.00</td><td>30.00</td><td><button type='button' onclick='eliminar_producto_modal(170)' class='btn btn-sm mb-0 btn-outline-danger'><i class='ft-trash'></i></button> <button type='button' onclick='modificar_producto2(170,1)' class='btn btn-sm mb-0 btn-success btn-flat'><i class='ft-plus'></i></button><button type='button' onclick='modificar_producto_modal(170,0)' class='btn btn-sm mb-0 btn-info btn-flat'><i class='ft-minus'></i></button></td></tr>. 


[2020-03-05 12:37:07]  
--------------------- Función agregar_producto() ---------------------

Persona que ingresa: 74. Nombre: PAMELA CRUZ ZAVALETA. 
Mesa seleccionada: 0. 
Id de Producto seleccionado: 175. 
Tabla: <tr><td>1</td><td>DELAWARE LATA</td><td>30.00</td><td>30.00</td><td><button type='button' onclick='eliminar_producto_modal(170)' class='btn btn-sm mb-0 btn-outline-danger'><i class='ft-trash'></i></button> <button type='button' onclick='modificar_producto2(170,1)' class='btn btn-sm mb-0 btn-success btn-flat'><i class='ft-plus'></i></button><button type='button' onclick='modificar_producto_modal(170,0)' class='btn btn-sm mb-0 btn-info btn-flat'><i class='ft-minus'></i></button></td></tr><tr><td>1</td><td>SPRITE LATA</td><td>30.00</td><td>30.00</td><td><button type='button' onclick='eliminar_producto_modal(175)' class='btn btn-sm mb-0 btn-outline-danger'><i class='ft-trash'></i></button> <button type='button' onclick='modificar_producto2(175,1)' class='btn btn-sm mb-0 btn-success btn-flat'><i class='ft-plus'></i></button><button type='button' onclick='modificar_producto_modal(175,0)' class='btn btn-sm mb-0 btn-info btn-flat'><i class='ft-minus'></i></button></td></tr>. 


[2020-03-05 15:57:52]  
--------------------- Función getUsuarioPorPin() ---------------------

Pin de usuario ingresado: 0325. Nombre: Karla Danae Martinez Campos. 
Mesa seleccionada: 7. 
Respuesta de búsqueda de empleado: 1. 
Tabla: . 


[2020-03-05 15:57:56]  
--------------------- Función agregar_producto() ---------------------

Persona que ingresa: 73. Nombre: Karla Danae Martinez Campos. 
Mesa seleccionada: 7. 
Id de Producto seleccionado: 163. 
Tabla: <tr><td>1</td><td>COCA COLA LATA</td><td>30.00</td><td>30.00</td><td><button type='button' onclick='eliminar_producto_modal(163)' class='btn btn-sm mb-0 btn-outline-danger'><i class='ft-trash'></i></button> <button type='button' onclick='modificar_producto2(163,1)' class='btn btn-sm mb-0 btn-success btn-flat'><i class='ft-plus'></i></button><button type='button' onclick='modificar_producto_modal(163,0)' class='btn btn-sm mb-0 btn-info btn-flat'><i class='ft-minus'></i></button></td></tr>. 


[2020-03-05 15:58:03]  
--------------------- Función agregar_producto() ---------------------

Persona que ingresa: 73. Nombre: Karla Danae Martinez Campos. 
Mesa seleccionada: 7. 
Id de Producto seleccionado: 180. 
Tabla: <tr><td>1</td><td>COCA COLA LATA</td><td>30.00</td><td>30.00</td><td><button type='button' onclick='eliminar_producto_modal(163)' class='btn btn-sm mb-0 btn-outline-danger'><i class='ft-trash'></i></button> <button type='button' onclick='modificar_producto2(163,1)' class='btn btn-sm mb-0 btn-success btn-flat'><i class='ft-plus'></i></button><button type='button' onclick='modificar_producto_modal(163,0)' class='btn btn-sm mb-0 btn-info btn-flat'><i class='ft-minus'></i></button></td></tr><tr><td>1</td><td>BOLIS</td><td>20.00</td><td>20.00</td><td><button type='button' onclick='eliminar_producto_modal(180)' class='btn btn-sm mb-0 btn-outline-danger'><i class='ft-trash'></i></button> <button type='button' onclick='modificar_producto2(180,1)' class='btn btn-sm mb-0 btn-success btn-flat'><i class='ft-plus'></i></button><button type='button' onclick='modificar_producto_modal(180,0)' class='btn btn-sm mb-0 btn-info btn-flat'><i class='ft-minus'></i></button></td></tr>. 


[2020-03-05 16:06:12]  
--------------------- Función getUsuarioPorPin() ---------------------

Pin de usuario ingresado: 0325. Nombre: Karla Danae Martinez Campos. 
Mesa seleccionada: 15. 
Respuesta de búsqueda de empleado: 1. 
Tabla: . 


[2020-03-05 16:06:19]  
--------------------- Función agregar_producto() ---------------------

Persona que ingresa: 73. Nombre: Karla Danae Martinez Campos. 
Mesa seleccionada: 15. 
Id de Producto seleccionado: 166. 
Tabla: <tr><td>1</td><td>COCA COLA LIGHT LATA</td><td>30.00</td><td>30.00</td><td><button type='button' onclick='eliminar_producto_modal(166)' class='btn btn-sm mb-0 btn-outline-danger'><i class='ft-trash'></i></button> <button type='button' onclick='modificar_producto2(166,1)' class='btn btn-sm mb-0 btn-success btn-flat'><i class='ft-plus'></i></button><button type='button' onclick='modificar_producto_modal(166,0)' class='btn btn-sm mb-0 btn-info btn-flat'><i class='ft-minus'></i></button></td></tr>. 


[2020-03-05 16:06:27]  
--------------------- Función agregar_producto() ---------------------

Persona que ingresa: 73. Nombre: Karla Danae Martinez Campos. 
Mesa seleccionada: 15. 
Id de Producto seleccionado: 7. 
Tabla: <tr><td>1</td><td>COCA COLA LIGHT LATA</td><td>30.00</td><td>30.00</td><td><button type='button' onclick='eliminar_producto_modal(166)' class='btn btn-sm mb-0 btn-outline-danger'><i class='ft-trash'></i></button> <button type='button' onclick='modificar_producto2(166,1)' class='btn btn-sm mb-0 btn-success btn-flat'><i class='ft-plus'></i></button><button type='button' onclick='modificar_producto_modal(166,0)' class='btn btn-sm mb-0 btn-info btn-flat'><i class='ft-minus'></i></button></td></tr><tr><td>1</td><td>PANINO ITALIANO</td><td>105.00</td><td>105.00</td><td><button type='button' onclick='eliminar_producto_modal(7)' class='btn btn-sm mb-0 btn-outline-danger'><i class='ft-trash'></i></button> <button type='button' onclick='modificar_producto2(7,1)' class='btn btn-sm mb-0 btn-success btn-flat'><i class='ft-plus'></i></button><button type='button' onclick='modificar_producto_modal(7,0)' class='btn btn-sm mb-0 btn-info btn-flat'><i class='ft-minus'></i></button></td></tr>. 


[2020-03-05 16:07:56]  
--------------------- Función getUsuarioPorPin() ---------------------

Pin de usuario ingresado: 0325. Nombre: Karla Danae Martinez Campos. 
Mesa seleccionada: 15. 
Respuesta de búsqueda de empleado: 1. 
Tabla: <tr><td>1</td><td>COCA COLA LIGHT LATA</td><td>30.00</td><td>30.00</td><td><button type='button' onclick='eliminar_producto_modal(166)' class='btn btn-sm mb-0 btn-outline-danger'><i class='ft-trash'></i></button> <button type='button' onclick='modificar_producto2(166,1)' class='btn btn-sm mb-0 btn-success btn-flat'><i class='ft-plus'></i></button><button type='button' onclick='modificar_producto_modal(166,0)' class='btn btn-sm mb-0 btn-info btn-flat'><i class='ft-minus'></i></button></td></tr><tr><td>1</td><td>PANINO ITALIANO</td><td>105.00</td><td>105.00</td><td><button type='button' onclick='eliminar_producto_modal(7)' class='btn btn-sm mb-0 btn-outline-danger'><i class='ft-trash'></i></button> <button type='button' onclick='modificar_producto2(7,1)' class='btn btn-sm mb-0 btn-success btn-flat'><i class='ft-plus'></i></button><button type='button' onclick='modificar_producto_modal(7,0)' class='btn btn-sm mb-0 btn-info btn-flat'><i class='ft-minus'></i></button></td></tr>. 


[2020-03-05 16:08:00]  
--------------------- Función agregar_producto() ---------------------

Persona que ingresa: 73. Nombre: Karla Danae Martinez Campos. 
Mesa seleccionada: 15. 
Id de Producto seleccionado: 20. 
Tabla: <tr><td>1</td><td>COCA COLA LIGHT LATA</td><td>30.00</td><td>30.00</td><td><button type='button' onclick='eliminar_producto_modal(166)' class='btn btn-sm mb-0 btn-outline-danger'><i class='ft-trash'></i></button> <button type='button' onclick='modificar_producto2(166,1)' class='btn btn-sm mb-0 btn-success btn-flat'><i class='ft-plus'></i></button><button type='button' onclick='modificar_producto_modal(166,0)' class='btn btn-sm mb-0 btn-info btn-flat'><i class='ft-minus'></i></button></td></tr><tr><td>1</td><td>PANINO ITALIANO</td><td>105.00</td><td>105.00</td><td><button type='button' onclick='eliminar_producto_modal(7)' class='btn btn-sm mb-0 btn-outline-danger'><i class='ft-trash'></i></button> <button type='button' onclick='modificar_producto2(7,1)' class='btn btn-sm mb-0 btn-success btn-flat'><i class='ft-plus'></i></button><button type='button' onclick='modificar_producto_modal(7,0)' class='btn btn-sm mb-0 btn-info btn-flat'><i class='ft-minus'></i></button></td></tr><tr><td>1</td><td>PIZZA HAWAII</td><td>110.00</td><td>110.00</td><td><button type='button' onclick='eliminar_producto_modal(20)' class='btn btn-sm mb-0 btn-outline-danger'><i class='ft-trash'></i></button> <button type='button' onclick='modificar_producto2(20,1)' class='btn btn-sm mb-0 btn-success btn-flat'><i class='ft-plus'></i></button><button type='button' onclick='modificar_producto_modal(20,0)' class='btn btn-sm mb-0 btn-info btn-flat'><i class='ft-minus'></i></button></td></tr>. 


[2020-03-05 16:08:13]  
--------------------- Función getUsuarioPorPin() ---------------------

Pin de usuario ingresado: 0325. Nombre: Karla Danae Martinez Campos. 
Mesa seleccionada: 15. 
Respuesta de búsqueda de empleado: 1. 
Tabla: <tr><td>1</td><td>COCA COLA LIGHT LATA</td><td>30.00</td><td>30.00</td><td><button type='button' onclick='eliminar_producto_modal(166)' class='btn btn-sm mb-0 btn-outline-danger'><i class='ft-trash'></i></button> <button type='button' onclick='modificar_producto2(166,1)' class='btn btn-sm mb-0 btn-success btn-flat'><i class='ft-plus'></i></button><button type='button' onclick='modificar_producto_modal(166,0)' class='btn btn-sm mb-0 btn-info btn-flat'><i class='ft-minus'></i></button></td></tr><tr><td>1</td><td>PANINO ITALIANO</td><td>105.00</td><td>105.00</td><td><button type='button' onclick='eliminar_producto_modal(7)' class='btn btn-sm mb-0 btn-outline-danger'><i class='ft-trash'></i></button> <button type='button' onclick='modificar_producto2(7,1)' class='btn btn-sm mb-0 btn-success btn-flat'><i class='ft-plus'></i></button><button type='button' onclick='modificar_producto_modal(7,0)' class='btn btn-sm mb-0 btn-info btn-flat'><i class='ft-minus'></i></button></td></tr><tr><td>1</td><td>PIZZA HAWAII</td><td>110.00</td><td>110.00</td><td><button type='button' onclick='eliminar_producto_modal(20)' class='btn btn-sm mb-0 btn-outline-danger'><i class='ft-trash'></i></button> <button type='button' onclick='modificar_producto2(20,1)' class='btn btn-sm mb-0 btn-success btn-flat'><i class='ft-plus'></i></button><button type='button' onclick='modificar_producto_modal(20,0)' class='btn btn-sm mb-0 btn-info btn-flat'><i class='ft-minus'></i></button></td></tr>. 


[2020-03-05 16:08:24]  
--------------------- Función agregar_producto() ---------------------

Persona que ingresa: 73. Nombre: Karla Danae Martinez Campos. 
Mesa seleccionada: 15. 
Id de Producto seleccionado: 83. 
Tabla: <tr><td>1</td><td>COCA COLA LIGHT LATA</td><td>30.00</td><td>30.00</td><td><button type='button' onclick='eliminar_producto_modal(166)' class='btn btn-sm mb-0 btn-outline-danger'><i class='ft-trash'></i></button> <button type='button' onclick='modificar_producto2(166,1)' class='btn btn-sm mb-0 btn-success btn-flat'><i class='ft-plus'></i></button><button type='button' onclick='modificar_producto_modal(166,0)' class='btn btn-sm mb-0 btn-info btn-flat'><i class='ft-minus'></i></button></td></tr><tr><td>1</td><td>PANINO ITALIANO</td><td>105.00</td><td>105.00</td><td><button type='button' onclick='eliminar_producto_modal(7)' class='btn btn-sm mb-0 btn-outline-danger'><i class='ft-trash'></i></button> <button type='button' onclick='modificar_producto2(7,1)' class='btn btn-sm mb-0 btn-success btn-flat'><i class='ft-plus'></i></button><button type='button' onclick='modificar_producto_modal(7,0)' class='btn btn-sm mb-0 btn-info btn-flat'><i class='ft-minus'></i></button></td></tr><tr><td>1</td><td>PIZZA HAWAII</td><td>110.00</td><td>110.00</td><td><button type='button' onclick='eliminar_producto_modal(20)' class='btn btn-sm mb-0 btn-outline-danger'><i class='ft-trash'></i></button> <button type='button' onclick='modificar_producto2(20,1)' class='btn btn-sm mb-0 btn-success btn-flat'><i class='ft-plus'></i></button><button type='button' onclick='modificar_producto_modal(20,0)' class='btn btn-sm mb-0 btn-info btn-flat'><i class='ft-minus'></i></button></td></tr><tr><td>1</td><td>AGUA DEL DIA</td><td>15.00</td><td>15.00</td><td><button type='button' onclick='eliminar_producto_modal(83)' class='btn btn-sm mb-0 btn-outline-danger'><i class='ft-trash'></i></button> <button type='button' onclick='modificar_producto2(83,1)' class='btn btn-sm mb-0 btn-success btn-flat'><i class='ft-plus'></i></button><button type='button' onclick='modificar_producto_modal(83,0)' class='btn btn-sm mb-0 btn-info btn-flat'><i class='ft-minus'></i></button></td></tr>. 


[2020-03-05 16:25:00]  
--------------------- Función getUsuarioPorPin() ---------------------

Pin de usuario ingresado: 0325. Nombre: Karla Danae Martinez Campos. 
Mesa seleccionada: 7. 
Respuesta de búsqueda de empleado: 1. 
Tabla: <tr><td>1</td><td>COCA COLA LATA</td><td>30.00</td><td>30.00</td><td><button type='button' onclick='eliminar_producto_modal(163)' class='btn btn-sm mb-0 btn-outline-danger'><i class='ft-trash'></i></button> <button type='button' onclick='modificar_producto2(163,1)' class='btn btn-sm mb-0 btn-success btn-flat'><i class='ft-plus'></i></button><button type='button' onclick='modificar_producto_modal(163,0)' class='btn btn-sm mb-0 btn-info btn-flat'><i class='ft-minus'></i></button></td></tr><tr><td>1</td><td>BOLIS</td><td>20.00</td><td>20.00</td><td><button type='button' onclick='eliminar_producto_modal(180)' class='btn btn-sm mb-0 btn-outline-danger'><i class='ft-trash'></i></button> <button type='button' onclick='modificar_producto2(180,1)' class='btn btn-sm mb-0 btn-success btn-flat'><i class='ft-plus'></i></button><button type='button' onclick='modificar_producto_modal(180,0)' class='btn btn-sm mb-0 btn-info btn-flat'><i class='ft-minus'></i></button></td></tr>. 


[2020-03-05 16:25:16]  
--------------------- Función agregar_producto() ---------------------

Persona que ingresa: 73. Nombre: Karla Danae Martinez Campos. 
Mesa seleccionada: 7. 
Id de Producto seleccionado: 45. 
Tabla: <tr><td>1</td><td>COCA COLA LATA</td><td>30.00</td><td>30.00</td><td><button type='button' onclick='eliminar_producto_modal(163)' class='btn btn-sm mb-0 btn-outline-danger'><i class='ft-trash'></i></button> <button type='button' onclick='modificar_producto2(163,1)' class='btn btn-sm mb-0 btn-success btn-flat'><i class='ft-plus'></i></button><button type='button' onclick='modificar_producto_modal(163,0)' class='btn btn-sm mb-0 btn-info btn-flat'><i class='ft-minus'></i></button></td></tr><tr><td>1</td><td>BOLIS</td><td>20.00</td><td>20.00</td><td><button type='button' onclick='eliminar_producto_modal(180)' class='btn btn-sm mb-0 btn-outline-danger'><i class='ft-trash'></i></button> <button type='button' onclick='modificar_producto2(180,1)' class='btn btn-sm mb-0 btn-success btn-flat'><i class='ft-plus'></i></button><button type='button' onclick='modificar_producto_modal(180,0)' class='btn btn-sm mb-0 btn-info btn-flat'><i class='ft-minus'></i></button></td></tr><tr><td>1</td><td>NECTAR MANGO</td><td>20.00</td><td>20.00</td><td><button type='button' onclick='eliminar_producto_modal(45)' class='btn btn-sm mb-0 btn-outline-danger'><i class='ft-trash'></i></button> <button type='button' onclick='modificar_producto2(45,1)' class='btn btn-sm mb-0 btn-success btn-flat'><i class='ft-plus'></i></button><button type='button' onclick='modificar_producto_modal(45,0)' class='btn btn-sm mb-0 btn-info btn-flat'><i class='ft-minus'></i></button></td></tr>. 


[2020-03-05 16:25:19]  
--------------------- Función agregar_producto() ---------------------

Persona que ingresa: 73. Nombre: Karla Danae Martinez Campos. 
Mesa seleccionada: 7. 
Id de Producto seleccionado: 43. 
Tabla: <tr><td>1</td><td>COCA COLA LATA</td><td>30.00</td><td>30.00</td><td><button type='button' onclick='eliminar_producto_modal(163)' class='btn btn-sm mb-0 btn-outline-danger'><i class='ft-trash'></i></button> <button type='button' onclick='modificar_producto2(163,1)' class='btn btn-sm mb-0 btn-success btn-flat'><i class='ft-plus'></i></button><button type='button' onclick='modificar_producto_modal(163,0)' class='btn btn-sm mb-0 btn-info btn-flat'><i class='ft-minus'></i></button></td></tr><tr><td>1</td><td>BOLIS</td><td>20.00</td><td>20.00</td><td><button type='button' onclick='eliminar_producto_modal(180)' class='btn btn-sm mb-0 btn-outline-danger'><i class='ft-trash'></i></button> <button type='button' onclick='modificar_producto2(180,1)' class='btn btn-sm mb-0 btn-success btn-flat'><i class='ft-plus'></i></button><button type='button' onclick='modificar_producto_modal(180,0)' class='btn btn-sm mb-0 btn-info btn-flat'><i class='ft-minus'></i></button></td></tr><tr><td>1</td><td>NECTAR MANGO</td><td>20.00</td><td>20.00</td><td><button type='button' onclick='eliminar_producto_modal(45)' class='btn btn-sm mb-0 btn-outline-danger'><i class='ft-trash'></i></button> <button type='button' onclick='modificar_producto2(45,1)' class='btn btn-sm mb-0 btn-success btn-flat'><i class='ft-plus'></i></button><button type='button' onclick='modificar_producto_modal(45,0)' class='btn btn-sm mb-0 btn-info btn-flat'><i class='ft-minus'></i></button></td></tr><tr><td>1</td><td>NECTAR MANZANA ROJA</td><td>20.00</td><td>20.00</td><td><button type='button' onclick='eliminar_producto_modal(43)' class='btn btn-sm mb-0 btn-outline-danger'><i class='ft-trash'></i></button> <button type='button' onclick='modificar_producto2(43,1)' class='btn btn-sm mb-0 btn-success btn-flat'><i class='ft-plus'></i></button><button type='button' onclick='modificar_producto_modal(43,0)' class='btn btn-sm mb-0 btn-info btn-flat'><i class='ft-minus'></i></button></td></tr>. 


[2020-03-05 16:28:29]  
--------------------- Función getUsuarioPorPin() ---------------------

Pin de usuario ingresado: 0325. Nombre: Karla Danae Martinez Campos. 
Mesa seleccionada: 12. 
Respuesta de búsqueda de empleado: 1. 
Tabla: . 


[2020-03-05 16:28:38]  
--------------------- Función agregar_producto() ---------------------

Persona que ingresa: 73. Nombre: Karla Danae Martinez Campos. 
Mesa seleccionada: 12. 
Id de Producto seleccionado: 85. 
Tabla: <tr><td>1</td><td>PIZZA PEPE</td><td>73.00</td><td>73.00</td><td><button type='button' onclick='eliminar_producto_modal(85)' class='btn btn-sm mb-0 btn-outline-danger'><i class='ft-trash'></i></button> <button type='button' onclick='modificar_producto2(85,1)' class='btn btn-sm mb-0 btn-success btn-flat'><i class='ft-plus'></i></button><button type='button' onclick='modificar_producto_modal(85,0)' class='btn btn-sm mb-0 btn-info btn-flat'><i class='ft-minus'></i></button></td></tr>. 


[2020-03-05 16:40:51]  
--------------------- Función getUsuarioPorPin() ---------------------

Pin de usuario ingresado: 0325. Nombre: Karla Danae Martinez Campos. 
Mesa seleccionada: 4. 
Respuesta de búsqueda de empleado: 1. 
Tabla: . 


[2020-03-05 16:40:56]  
--------------------- Función agregar_producto() ---------------------

Persona que ingresa: 73. Nombre: Karla Danae Martinez Campos. 
Mesa seleccionada: 4. 
Id de Producto seleccionado: 42. 
Tabla: <tr><td>1</td><td>POWERADE FRUTAS</td><td>35.00</td><td>35.00</td><td><button type='button' onclick='eliminar_producto_modal(42)' class='btn btn-sm mb-0 btn-outline-danger'><i class='ft-trash'></i></button> <button type='button' onclick='modificar_producto2(42,1)' class='btn btn-sm mb-0 btn-success btn-flat'><i class='ft-plus'></i></button><button type='button' onclick='modificar_producto_modal(42,0)' class='btn btn-sm mb-0 btn-info btn-flat'><i class='ft-minus'></i></button></td></tr>. 


[2020-03-05 16:41:01]  
--------------------- Función agregar_producto() ---------------------

Persona que ingresa: 73. Nombre: Karla Danae Martinez Campos. 
Mesa seleccionada: 4. 
Id de Producto seleccionado: 163. 
Tabla: <tr><td>1</td><td>POWERADE FRUTAS</td><td>35.00</td><td>35.00</td><td><button type='button' onclick='eliminar_producto_modal(42)' class='btn btn-sm mb-0 btn-outline-danger'><i class='ft-trash'></i></button> <button type='button' onclick='modificar_producto2(42,1)' class='btn btn-sm mb-0 btn-success btn-flat'><i class='ft-plus'></i></button><button type='button' onclick='modificar_producto_modal(42,0)' class='btn btn-sm mb-0 btn-info btn-flat'><i class='ft-minus'></i></button></td></tr><tr><td>1</td><td>COCA COLA LATA</td><td>30.00</td><td>30.00</td><td><button type='button' onclick='eliminar_producto_modal(163)' class='btn btn-sm mb-0 btn-outline-danger'><i class='ft-trash'></i></button> <button type='button' onclick='modificar_producto2(163,1)' class='btn btn-sm mb-0 btn-success btn-flat'><i class='ft-plus'></i></button><button type='button' onclick='modificar_producto_modal(163,0)' class='btn btn-sm mb-0 btn-info btn-flat'><i class='ft-minus'></i></button></td></tr>. 


[2020-03-05 16:49:50]  
--------------------- Función getUsuarioPorPin() ---------------------

Pin de usuario ingresado: 0325. Nombre: Karla Danae Martinez Campos. 
Mesa seleccionada: 4. 
Respuesta de búsqueda de empleado: 1. 
Tabla: <tr><td>1</td><td>POWERADE FRUTAS</td><td>35.00</td><td>35.00</td><td><button type='button' onclick='eliminar_producto_modal(42)' class='btn btn-sm mb-0 btn-outline-danger'><i class='ft-trash'></i></button> <button type='button' onclick='modificar_producto2(42,1)' class='btn btn-sm mb-0 btn-success btn-flat'><i class='ft-plus'></i></button><button type='button' onclick='modificar_producto_modal(42,0)' class='btn btn-sm mb-0 btn-info btn-flat'><i class='ft-minus'></i></button></td></tr><tr><td>1</td><td>COCA COLA LATA</td><td>30.00</td><td>30.00</td><td><button type='button' onclick='eliminar_producto_modal(163)' class='btn btn-sm mb-0 btn-outline-danger'><i class='ft-trash'></i></button> <button type='button' onclick='modificar_producto2(163,1)' class='btn btn-sm mb-0 btn-success btn-flat'><i class='ft-plus'></i></button><button type='button' onclick='modificar_producto_modal(163,0)' class='btn btn-sm mb-0 btn-info btn-flat'><i class='ft-minus'></i></button></td></tr>. 


[2020-03-05 17:19:57]  
--------------------- Función getUsuarioPorPin() ---------------------

Pin de usuario ingresado: 0411. Nombre: PAMELA CRUZ ZAVALETA. 
Mesa seleccionada: 15. 
Respuesta de búsqueda de empleado: 1. 
Tabla: <tr><td>1</td><td>COCA COLA LIGHT LATA</td><td>30.00</td><td>30.00</td><td><button type='button' onclick='eliminar_producto_modal(166)' class='btn btn-sm mb-0 btn-outline-danger'><i class='ft-trash'></i></button> <button type='button' onclick='modificar_producto2(166,1)' class='btn btn-sm mb-0 btn-success btn-flat'><i class='ft-plus'></i></button><button type='button' onclick='modificar_producto_modal(166,0)' class='btn btn-sm mb-0 btn-info btn-flat'><i class='ft-minus'></i></button></td></tr><tr><td>1</td><td>PANINO ITALIANO</td><td>105.00</td><td>105.00</td><td><button type='button' onclick='eliminar_producto_modal(7)' class='btn btn-sm mb-0 btn-outline-danger'><i class='ft-trash'></i></button> <button type='button' onclick='modificar_producto2(7,1)' class='btn btn-sm mb-0 btn-success btn-flat'><i class='ft-plus'></i></button><button type='button' onclick='modificar_producto_modal(7,0)' class='btn btn-sm mb-0 btn-info btn-flat'><i class='ft-minus'></i></button></td></tr><tr><td>1</td><td>PIZZA HAWAII</td><td>110.00</td><td>110.00</td><td><button type='button' onclick='eliminar_producto_modal(20)' class='btn btn-sm mb-0 btn-outline-danger'><i class='ft-trash'></i></button> <button type='button' onclick='modificar_producto2(20,1)' class='btn btn-sm mb-0 btn-success btn-flat'><i class='ft-plus'></i></button><button type='button' onclick='modificar_producto_modal(20,0)' class='btn btn-sm mb-0 btn-info btn-flat'><i class='ft-minus'></i></button></td></tr><tr><td>1</td><td>AGUA DEL DIA</td><td>15.00</td><td>15.00</td><td><button type='button' onclick='eliminar_producto_modal(83)' class='btn btn-sm mb-0 btn-outline-danger'><i class='ft-trash'></i></button> <button type='button' onclick='modificar_producto2(83,1)' class='btn btn-sm mb-0 btn-success btn-flat'><i class='ft-plus'></i></button><button type='button' onclick='modificar_producto_modal(83,0)' class='btn btn-sm mb-0 btn-info btn-flat'><i class='ft-minus'></i></button></td></tr>. 


[2020-03-05 17:32:41]  
--------------------- Función getUsuarioPorPin() ---------------------

Pin de usuario ingresado: 0411. Nombre: PAMELA CRUZ ZAVALETA. 
Mesa seleccionada: 7. 
Respuesta de búsqueda de empleado: 1. 
Tabla: <tr><td>1</td><td>COCA COLA LATA</td><td>30.00</td><td>30.00</td><td><button type='button' onclick='eliminar_producto_modal(163)' class='btn btn-sm mb-0 btn-outline-danger'><i class='ft-trash'></i></button> <button type='button' onclick='modificar_producto2(163,1)' class='btn btn-sm mb-0 btn-success btn-flat'><i class='ft-plus'></i></button><button type='button' onclick='modificar_producto_modal(163,0)' class='btn btn-sm mb-0 btn-info btn-flat'><i class='ft-minus'></i></button></td></tr><tr><td>1</td><td>BOLIS</td><td>20.00</td><td>20.00</td><td><button type='button' onclick='eliminar_producto_modal(180)' class='btn btn-sm mb-0 btn-outline-danger'><i class='ft-trash'></i></button> <button type='button' onclick='modificar_producto2(180,1)' class='btn btn-sm mb-0 btn-success btn-flat'><i class='ft-plus'></i></button><button type='button' onclick='modificar_producto_modal(180,0)' class='btn btn-sm mb-0 btn-info btn-flat'><i class='ft-minus'></i></button></td></tr><tr><td>1</td><td>NECTAR MANGO</td><td>20.00</td><td>20.00</td><td><button type='button' onclick='eliminar_producto_modal(45)' class='btn btn-sm mb-0 btn-outline-danger'><i class='ft-trash'></i></button> <button type='button' onclick='modificar_producto2(45,1)' class='btn btn-sm mb-0 btn-success btn-flat'><i class='ft-plus'></i></button><button type='button' onclick='modificar_producto_modal(45,0)' class='btn btn-sm mb-0 btn-info btn-flat'><i class='ft-minus'></i></button></td></tr><tr><td>1</td><td>NECTAR MANZANA ROJA</td><td>20.00</td><td>20.00</td><td><button type='button' onclick='eliminar_producto_modal(43)' class='btn btn-sm mb-0 btn-outline-danger'><i class='ft-trash'></i></button> <button type='button' onclick='modificar_producto2(43,1)' class='btn btn-sm mb-0 btn-success btn-flat'><i class='ft-plus'></i></button><button type='button' onclick='modificar_producto_modal(43,0)' class='btn btn-sm mb-0 btn-info btn-flat'><i class='ft-minus'></i></button></td></tr>. 


[2020-03-05 17:32:48]  
--------------------- Función modificar_producto() ---------------------

Persona que ingresa: 74. Nombre: PAMELA CRUZ ZAVALETA. 
Mesa seleccionada: 7. 
Acción realizada: Aumentó la cantidad del producto: 180, BOLIS. 
Tabla: <tr><td>1</td><td>COCA COLA LATA</td><td>30.00</td><td>30.00</td><td><button type='button' onclick='eliminar_producto_modal(163)' class='btn btn-sm mb-0 btn-outline-danger'><i class='ft-trash'></i></button> <button type='button' onclick='modificar_producto2(163,1)' class='btn btn-sm mb-0 btn-success btn-flat'><i class='ft-plus'></i></button><button type='button' onclick='modificar_producto_modal(163,0)' class='btn btn-sm mb-0 btn-info btn-flat'><i class='ft-minus'></i></button></td></tr><tr><td>2</td><td>BOLIS</td><td>20.00</td><td>40.00</td><td><button type='button' onclick='eliminar_producto_modal(180)' class='btn btn-sm mb-0 btn-outline-danger'><i class='ft-trash'></i></button> <button type='button' onclick='modificar_producto2(180,1)' class='btn btn-sm mb-0 btn-success btn-flat'><i class='ft-plus'></i></button><button type='button' onclick='modificar_producto_modal(180,0)' class='btn btn-sm mb-0 btn-info btn-flat'><i class='ft-minus'></i></button></td></tr><tr><td>1</td><td>NECTAR MANGO</td><td>20.00</td><td>20.00</td><td><button type='button' onclick='eliminar_producto_modal(45)' class='btn btn-sm mb-0 btn-outline-danger'><i class='ft-trash'></i></button> <button type='button' onclick='modificar_producto2(45,1)' class='btn btn-sm mb-0 btn-success btn-flat'><i class='ft-plus'></i></button><button type='button' onclick='modificar_producto_modal(45,0)' class='btn btn-sm mb-0 btn-info btn-flat'><i class='ft-minus'></i></button></td></tr><tr><td>1</td><td>NECTAR MANZANA ROJA</td><td>20.00</td><td>20.00</td><td><button type='button' onclick='eliminar_producto_modal(43)' class='btn btn-sm mb-0 btn-outline-danger'><i class='ft-trash'></i></button> <button type='button' onclick='modificar_producto2(43,1)' class='btn btn-sm mb-0 btn-success btn-flat'><i class='ft-plus'></i></button><button type='button' onclick='modificar_producto_modal(43,0)' class='btn btn-sm mb-0 btn-info btn-flat'><i class='ft-minus'></i></button></td></tr>. 


[2020-03-05 17:36:12]  
--------------------- Función getUsuarioPorPin() ---------------------

Pin de usuario ingresado: 123456. Nombre: CAFETERIA. 
Mesa seleccionada: 7. 
Respuesta de búsqueda de empleado: 1. 
Tabla: <tr><td>1</td><td>COCA COLA LATA</td><td>30.00</td><td>30.00</td><td><button type='button' onclick='eliminar_producto_modal(163)' class='btn btn-sm mb-0 btn-outline-danger'><i class='ft-trash'></i></button> <button type='button' onclick='modificar_producto2(163,1)' class='btn btn-sm mb-0 btn-success btn-flat'><i class='ft-plus'></i></button><button type='button' onclick='modificar_producto_modal(163,0)' class='btn btn-sm mb-0 btn-info btn-flat'><i class='ft-minus'></i></button></td></tr><tr><td>2</td><td>BOLIS</td><td>20.00</td><td>40.00</td><td><button type='button' onclick='eliminar_producto_modal(180)' class='btn btn-sm mb-0 btn-outline-danger'><i class='ft-trash'></i></button> <button type='button' onclick='modificar_producto2(180,1)' class='btn btn-sm mb-0 btn-success btn-flat'><i class='ft-plus'></i></button><button type='button' onclick='modificar_producto_modal(180,0)' class='btn btn-sm mb-0 btn-info btn-flat'><i class='ft-minus'></i></button></td></tr><tr><td>1</td><td>NECTAR MANGO</td><td>20.00</td><td>20.00</td><td><button type='button' onclick='eliminar_producto_modal(45)' class='btn btn-sm mb-0 btn-outline-danger'><i class='ft-trash'></i></button> <button type='button' onclick='modificar_producto2(45,1)' class='btn btn-sm mb-0 btn-success btn-flat'><i class='ft-plus'></i></button><button type='button' onclick='modificar_producto_modal(45,0)' class='btn btn-sm mb-0 btn-info btn-flat'><i class='ft-minus'></i></button></td></tr><tr><td>1</td><td>NECTAR MANZANA ROJA</td><td>20.00</td><td>20.00</td><td><button type='button' onclick='eliminar_producto_modal(43)' class='btn btn-sm mb-0 btn-outline-danger'><i class='ft-trash'></i></button> <button type='button' onclick='modificar_producto2(43,1)' class='btn btn-sm mb-0 btn-success btn-flat'><i class='ft-plus'></i></button><button type='button' onclick='modificar_producto_modal(43,0)' class='btn btn-sm mb-0 btn-info btn-flat'><i class='ft-minus'></i></button></td></tr>. 


[2020-03-05 17:36:12]  
--------------------- Función getUsuarioPorPin() ---------------------

Pin de usuario ingresado: 123456. Nombre: CAFETERIA. 
Mesa seleccionada: 7. 
Respuesta de búsqueda de empleado: 1. 
Tabla: <tr><td>1</td><td>COCA COLA LATA</td><td>30.00</td><td>30.00</td><td><button type='button' onclick='eliminar_producto_modal(163)' class='btn btn-sm mb-0 btn-outline-danger'><i class='ft-trash'></i></button> <button type='button' onclick='modificar_producto2(163,1)' class='btn btn-sm mb-0 btn-success btn-flat'><i class='ft-plus'></i></button><button type='button' onclick='modificar_producto_modal(163,0)' class='btn btn-sm mb-0 btn-info btn-flat'><i class='ft-minus'></i></button></td></tr><tr><td>2</td><td>BOLIS</td><td>20.00</td><td>40.00</td><td><button type='button' onclick='eliminar_producto_modal(180)' class='btn btn-sm mb-0 btn-outline-danger'><i class='ft-trash'></i></button> <button type='button' onclick='modificar_producto2(180,1)' class='btn btn-sm mb-0 btn-success btn-flat'><i class='ft-plus'></i></button><button type='button' onclick='modificar_producto_modal(180,0)' class='btn btn-sm mb-0 btn-info btn-flat'><i class='ft-minus'></i></button></td></tr><tr><td>1</td><td>NECTAR MANGO</td><td>20.00</td><td>20.00</td><td><button type='button' onclick='eliminar_producto_modal(45)' class='btn btn-sm mb-0 btn-outline-danger'><i class='ft-trash'></i></button> <button type='button' onclick='modificar_producto2(45,1)' class='btn btn-sm mb-0 btn-success btn-flat'><i class='ft-plus'></i></button><button type='button' onclick='modificar_producto_modal(45,0)' class='btn btn-sm mb-0 btn-info btn-flat'><i class='ft-minus'></i></button></td></tr><tr><td>1</td><td>NECTAR MANZANA ROJA</td><td>20.00</td><td>20.00</td><td><button type='button' onclick='eliminar_producto_modal(43)' class='btn btn-sm mb-0 btn-outline-danger'><i class='ft-trash'></i></button> <button type='button' onclick='modificar_producto2(43,1)' class='btn btn-sm mb-0 btn-success btn-flat'><i class='ft-plus'></i></button><button type='button' onclick='modificar_producto_modal(43,0)' class='btn btn-sm mb-0 btn-info btn-flat'><i class='ft-minus'></i></button></td></tr>. 


[2020-03-05 17:36:19]  
--------------------- Función agregar_producto() ---------------------

Persona que ingresa: 42. Nombre: CAFETERIA. 
Mesa seleccionada: 7. 
Id de Producto seleccionado: 180. 
Tabla: <tr><td>1</td><td>COCA COLA LATA</td><td>30.00</td><td>30.00</td><td><button type='button' onclick='eliminar_producto_modal(163)' class='btn btn-sm mb-0 btn-outline-danger'><i class='ft-trash'></i></button> <button type='button' onclick='modificar_producto2(163,1)' class='btn btn-sm mb-0 btn-success btn-flat'><i class='ft-plus'></i></button><button type='button' onclick='modificar_producto_modal(163,0)' class='btn btn-sm mb-0 btn-info btn-flat'><i class='ft-minus'></i></button></td></tr><tr><td>3</td><td>BOLIS</td><td>20.00</td><td>60.00</td><td><button type='button' onclick='eliminar_producto_modal(180)' class='btn btn-sm mb-0 btn-outline-danger'><i class='ft-trash'></i></button> <button type='button' onclick='modificar_producto2(180,1)' class='btn btn-sm mb-0 btn-success btn-flat'><i class='ft-plus'></i></button><button type='button' onclick='modificar_producto_modal(180,0)' class='btn btn-sm mb-0 btn-info btn-flat'><i class='ft-minus'></i></button></td></tr><tr><td>1</td><td>NECTAR MANGO</td><td>20.00</td><td>20.00</td><td><button type='button' onclick='eliminar_producto_modal(45)' class='btn btn-sm mb-0 btn-outline-danger'><i class='ft-trash'></i></button> <button type='button' onclick='modificar_producto2(45,1)' class='btn btn-sm mb-0 btn-success btn-flat'><i class='ft-plus'></i></button><button type='button' onclick='modificar_producto_modal(45,0)' class='btn btn-sm mb-0 btn-info btn-flat'><i class='ft-minus'></i></button></td></tr><tr><td>1</td><td>NECTAR MANZANA ROJA</td><td>20.00</td><td>20.00</td><td><button type='button' onclick='eliminar_producto_modal(43)' class='btn btn-sm mb-0 btn-outline-danger'><i class='ft-trash'></i></button> <button type='button' onclick='modificar_producto2(43,1)' class='btn btn-sm mb-0 btn-success btn-flat'><i class='ft-plus'></i></button><button type='button' onclick='modificar_producto_modal(43,0)' class='btn btn-sm mb-0 btn-info btn-flat'><i class='ft-minus'></i></button></td></tr>. 


[2020-03-05 17:38:17]  
--------------------- Función getUsuarioPorPin() ---------------------

Pin de usuario ingresado: 7845. Nombre: CECILIA GUEVARA. 
Mesa seleccionada: 7. 
Respuesta de búsqueda de empleado: 1. 
Tabla: <tr><td>1</td><td>COCA COLA LATA</td><td>30.00</td><td>30.00</td><td><button type='button' onclick='eliminar_producto_modal(163)' class='btn btn-sm mb-0 btn-outline-danger'><i class='ft-trash'></i></button> <button type='button' onclick='modificar_producto2(163,1)' class='btn btn-sm mb-0 btn-success btn-flat'><i class='ft-plus'></i></button><button type='button' onclick='modificar_producto_modal(163,0)' class='btn btn-sm mb-0 btn-info btn-flat'><i class='ft-minus'></i></button></td></tr><tr><td>3</td><td>BOLIS</td><td>20.00</td><td>60.00</td><td><button type='button' onclick='eliminar_producto_modal(180)' class='btn btn-sm mb-0 btn-outline-danger'><i class='ft-trash'></i></button> <button type='button' onclick='modificar_producto2(180,1)' class='btn btn-sm mb-0 btn-success btn-flat'><i class='ft-plus'></i></button><button type='button' onclick='modificar_producto_modal(180,0)' class='btn btn-sm mb-0 btn-info btn-flat'><i class='ft-minus'></i></button></td></tr><tr><td>1</td><td>NECTAR MANGO</td><td>20.00</td><td>20.00</td><td><button type='button' onclick='eliminar_producto_modal(45)' class='btn btn-sm mb-0 btn-outline-danger'><i class='ft-trash'></i></button> <button type='button' onclick='modificar_producto2(45,1)' class='btn btn-sm mb-0 btn-success btn-flat'><i class='ft-plus'></i></button><button type='button' onclick='modificar_producto_modal(45,0)' class='btn btn-sm mb-0 btn-info btn-flat'><i class='ft-minus'></i></button></td></tr><tr><td>1</td><td>NECTAR MANZANA ROJA</td><td>20.00</td><td>20.00</td><td><button type='button' onclick='eliminar_producto_modal(43)' class='btn btn-sm mb-0 btn-outline-danger'><i class='ft-trash'></i></button> <button type='button' onclick='modificar_producto2(43,1)' class='btn btn-sm mb-0 btn-success btn-flat'><i class='ft-plus'></i></button><button type='button' onclick='modificar_producto_modal(43,0)' class='btn btn-sm mb-0 btn-info btn-flat'><i class='ft-minus'></i></button></td></tr>. 


[2020-03-05 18:39:41]  
--------------------- Función getUsuarioPorPin() ---------------------

Pin de usuario ingresado: 0411. Nombre: PAMELA CRUZ ZAVALETA. 
Mesa seleccionada: 0. 
Respuesta de búsqueda de empleado: 1. 
Tabla: . 


[2020-03-05 18:39:45]  
--------------------- Función agregar_producto() ---------------------

Persona que ingresa: 74. Nombre: PAMELA CRUZ ZAVALETA. 
Mesa seleccionada: 0. 
Id de Producto seleccionado: 37. 
Tabla: <tr><td>1</td><td>AGUA CIEL</td><td>20.00</td><td>20.00</td><td><button type='button' onclick='eliminar_producto_modal(37)' class='btn btn-sm mb-0 btn-outline-danger'><i class='ft-trash'></i></button> <button type='button' onclick='modificar_producto2(37,1)' class='btn btn-sm mb-0 btn-success btn-flat'><i class='ft-plus'></i></button><button type='button' onclick='modificar_producto_modal(37,0)' class='btn btn-sm mb-0 btn-info btn-flat'><i class='ft-minus'></i></button></td></tr>. 


[2020-03-05 18:52:26]  
--------------------- Función getUsuarioPorPin() ---------------------

Pin de usuario ingresado: 0411. Nombre: PAMELA CRUZ ZAVALETA. 
Mesa seleccionada: 15. 
Respuesta de búsqueda de empleado: 1. 
Tabla: <tr><td>1</td><td>COCA COLA LIGHT LATA</td><td>30.00</td><td>30.00</td><td><button type='button' onclick='eliminar_producto_modal(166)' class='btn btn-sm mb-0 btn-outline-danger'><i class='ft-trash'></i></button> <button type='button' onclick='modificar_producto2(166,1)' class='btn btn-sm mb-0 btn-success btn-flat'><i class='ft-plus'></i></button><button type='button' onclick='modificar_producto_modal(166,0)' class='btn btn-sm mb-0 btn-info btn-flat'><i class='ft-minus'></i></button></td></tr><tr><td>1</td><td>PANINO ITALIANO</td><td>105.00</td><td>105.00</td><td><button type='button' onclick='eliminar_producto_modal(7)' class='btn btn-sm mb-0 btn-outline-danger'><i class='ft-trash'></i></button> <button type='button' onclick='modificar_producto2(7,1)' class='btn btn-sm mb-0 btn-success btn-flat'><i class='ft-plus'></i></button><button type='button' onclick='modificar_producto_modal(7,0)' class='btn btn-sm mb-0 btn-info btn-flat'><i class='ft-minus'></i></button></td></tr><tr><td>1</td><td>PIZZA HAWAII</td><td>110.00</td><td>110.00</td><td><button type='button' onclick='eliminar_producto_modal(20)' class='btn btn-sm mb-0 btn-outline-danger'><i class='ft-trash'></i></button> <button type='button' onclick='modificar_producto2(20,1)' class='btn btn-sm mb-0 btn-success btn-flat'><i class='ft-plus'></i></button><button type='button' onclick='modificar_producto_modal(20,0)' class='btn btn-sm mb-0 btn-info btn-flat'><i class='ft-minus'></i></button></td></tr><tr><td>1</td><td>AGUA DEL DIA</td><td>15.00</td><td>15.00</td><td><button type='button' onclick='eliminar_producto_modal(83)' class='btn btn-sm mb-0 btn-outline-danger'><i class='ft-trash'></i></button> <button type='button' onclick='modificar_producto2(83,1)' class='btn btn-sm mb-0 btn-success btn-flat'><i class='ft-plus'></i></button><button type='button' onclick='modificar_producto_modal(83,0)' class='btn btn-sm mb-0 btn-info btn-flat'><i class='ft-minus'></i></button></td></tr>. 


[2020-03-05 18:52:50]  
--------------------- Función agregar_producto() ---------------------

Persona que ingresa: 74. Nombre: PAMELA CRUZ ZAVALETA. 
Mesa seleccionada: 15. 
Id de Producto seleccionado: 45. 
Tabla: <tr><td>1</td><td>COCA COLA LIGHT LATA</td><td>30.00</td><td>30.00</td><td><button type='button' onclick='eliminar_producto_modal(166)' class='btn btn-sm mb-0 btn-outline-danger'><i class='ft-trash'></i></button> <button type='button' onclick='modificar_producto2(166,1)' class='btn btn-sm mb-0 btn-success btn-flat'><i class='ft-plus'></i></button><button type='button' onclick='modificar_producto_modal(166,0)' class='btn btn-sm mb-0 btn-info btn-flat'><i class='ft-minus'></i></button></td></tr><tr><td>1</td><td>PANINO ITALIANO</td><td>105.00</td><td>105.00</td><td><button type='button' onclick='eliminar_producto_modal(7)' class='btn btn-sm mb-0 btn-outline-danger'><i class='ft-trash'></i></button> <button type='button' onclick='modificar_producto2(7,1)' class='btn btn-sm mb-0 btn-success btn-flat'><i class='ft-plus'></i></button><button type='button' onclick='modificar_producto_modal(7,0)' class='btn btn-sm mb-0 btn-info btn-flat'><i class='ft-minus'></i></button></td></tr><tr><td>1</td><td>PIZZA HAWAII</td><td>110.00</td><td>110.00</td><td><button type='button' onclick='eliminar_producto_modal(20)' class='btn btn-sm mb-0 btn-outline-danger'><i class='ft-trash'></i></button> <button type='button' onclick='modificar_producto2(20,1)' class='btn btn-sm mb-0 btn-success btn-flat'><i class='ft-plus'></i></button><button type='button' onclick='modificar_producto_modal(20,0)' class='btn btn-sm mb-0 btn-info btn-flat'><i class='ft-minus'></i></button></td></tr><tr><td>1</td><td>AGUA DEL DIA</td><td>15.00</td><td>15.00</td><td><button type='button' onclick='eliminar_producto_modal(83)' class='btn btn-sm mb-0 btn-outline-danger'><i class='ft-trash'></i></button> <button type='button' onclick='modificar_producto2(83,1)' class='btn btn-sm mb-0 btn-success btn-flat'><i class='ft-plus'></i></button><button type='button' onclick='modificar_producto_modal(83,0)' class='btn btn-sm mb-0 btn-info btn-flat'><i class='ft-minus'></i></button></td></tr><tr><td>1</td><td>NECTAR MANGO</td><td>20.00</td><td>20.00</td><td><button type='button' onclick='eliminar_producto_modal(45)' class='btn btn-sm mb-0 btn-outline-danger'><i class='ft-trash'></i></button> <button type='button' onclick='modificar_producto2(45,1)' class='btn btn-sm mb-0 btn-success btn-flat'><i class='ft-plus'></i></button><button type='button' onclick='modificar_producto_modal(45,0)' class='btn btn-sm mb-0 btn-info btn-flat'><i class='ft-minus'></i></button></td></tr>. 


[2020-03-05 18:52:56]  
--------------------- Función agregar_producto() ---------------------

Persona que ingresa: 74. Nombre: PAMELA CRUZ ZAVALETA. 
Mesa seleccionada: 15. 
Id de Producto seleccionado: 37. 
Tabla: <tr><td>1</td><td>COCA COLA LIGHT LATA</td><td>30.00</td><td>30.00</td><td><button type='button' onclick='eliminar_producto_modal(166)' class='btn btn-sm mb-0 btn-outline-danger'><i class='ft-trash'></i></button> <button type='button' onclick='modificar_producto2(166,1)' class='btn btn-sm mb-0 btn-success btn-flat'><i class='ft-plus'></i></button><button type='button' onclick='modificar_producto_modal(166,0)' class='btn btn-sm mb-0 btn-info btn-flat'><i class='ft-minus'></i></button></td></tr><tr><td>1</td><td>PANINO ITALIANO</td><td>105.00</td><td>105.00</td><td><button type='button' onclick='eliminar_producto_modal(7)' class='btn btn-sm mb-0 btn-outline-danger'><i class='ft-trash'></i></button> <button type='button' onclick='modificar_producto2(7,1)' class='btn btn-sm mb-0 btn-success btn-flat'><i class='ft-plus'></i></button><button type='button' onclick='modificar_producto_modal(7,0)' class='btn btn-sm mb-0 btn-info btn-flat'><i class='ft-minus'></i></button></td></tr><tr><td>1</td><td>PIZZA HAWAII</td><td>110.00</td><td>110.00</td><td><button type='button' onclick='eliminar_producto_modal(20)' class='btn btn-sm mb-0 btn-outline-danger'><i class='ft-trash'></i></button> <button type='button' onclick='modificar_producto2(20,1)' class='btn btn-sm mb-0 btn-success btn-flat'><i class='ft-plus'></i></button><button type='button' onclick='modificar_producto_modal(20,0)' class='btn btn-sm mb-0 btn-info btn-flat'><i class='ft-minus'></i></button></td></tr><tr><td>1</td><td>AGUA DEL DIA</td><td>15.00</td><td>15.00</td><td><button type='button' onclick='eliminar_producto_modal(83)' class='btn btn-sm mb-0 btn-outline-danger'><i class='ft-trash'></i></button> <button type='button' onclick='modificar_producto2(83,1)' class='btn btn-sm mb-0 btn-success btn-flat'><i class='ft-plus'></i></button><button type='button' onclick='modificar_producto_modal(83,0)' class='btn btn-sm mb-0 btn-info btn-flat'><i class='ft-minus'></i></button></td></tr><tr><td>1</td><td>NECTAR MANGO</td><td>20.00</td><td>20.00</td><td><button type='button' onclick='eliminar_producto_modal(45)' class='btn btn-sm mb-0 btn-outline-danger'><i class='ft-trash'></i></button> <button type='button' onclick='modificar_producto2(45,1)' class='btn btn-sm mb-0 btn-success btn-flat'><i class='ft-plus'></i></button><button type='button' onclick='modificar_producto_modal(45,0)' class='btn btn-sm mb-0 btn-info btn-flat'><i class='ft-minus'></i></button></td></tr><tr><td>1</td><td>AGUA CIEL</td><td>20.00</td><td>20.00</td><td><button type='button' onclick='eliminar_producto_modal(37)' class='btn btn-sm mb-0 btn-outline-danger'><i class='ft-trash'></i></button> <button type='button' onclick='modificar_producto2(37,1)' class='btn btn-sm mb-0 btn-success btn-flat'><i class='ft-plus'></i></button><button type='button' onclick='modificar_producto_modal(37,0)' class='btn btn-sm mb-0 btn-info btn-flat'><i class='ft-minus'></i></button></td></tr>. 


[2020-03-05 18:52:57]  
--------------------- Función agregar_producto() ---------------------

Persona que ingresa: 74. Nombre: PAMELA CRUZ ZAVALETA. 
Mesa seleccionada: 15. 
Id de Producto seleccionado: 37. 
Tabla: <tr><td>1</td><td>COCA COLA LIGHT LATA</td><td>30.00</td><td>30.00</td><td><button type='button' onclick='eliminar_producto_modal(166)' class='btn btn-sm mb-0 btn-outline-danger'><i class='ft-trash'></i></button> <button type='button' onclick='modificar_producto2(166,1)' class='btn btn-sm mb-0 btn-success btn-flat'><i class='ft-plus'></i></button><button type='button' onclick='modificar_producto_modal(166,0)' class='btn btn-sm mb-0 btn-info btn-flat'><i class='ft-minus'></i></button></td></tr><tr><td>1</td><td>PANINO ITALIANO</td><td>105.00</td><td>105.00</td><td><button type='button' onclick='eliminar_producto_modal(7)' class='btn btn-sm mb-0 btn-outline-danger'><i class='ft-trash'></i></button> <button type='button' onclick='modificar_producto2(7,1)' class='btn btn-sm mb-0 btn-success btn-flat'><i class='ft-plus'></i></button><button type='button' onclick='modificar_producto_modal(7,0)' class='btn btn-sm mb-0 btn-info btn-flat'><i class='ft-minus'></i></button></td></tr><tr><td>1</td><td>PIZZA HAWAII</td><td>110.00</td><td>110.00</td><td><button type='button' onclick='eliminar_producto_modal(20)' class='btn btn-sm mb-0 btn-outline-danger'><i class='ft-trash'></i></button> <button type='button' onclick='modificar_producto2(20,1)' class='btn btn-sm mb-0 btn-success btn-flat'><i class='ft-plus'></i></button><button type='button' onclick='modificar_producto_modal(20,0)' class='btn btn-sm mb-0 btn-info btn-flat'><i class='ft-minus'></i></button></td></tr><tr><td>1</td><td>AGUA DEL DIA</td><td>15.00</td><td>15.00</td><td><button type='button' onclick='eliminar_producto_modal(83)' class='btn btn-sm mb-0 btn-outline-danger'><i class='ft-trash'></i></button> <button type='button' onclick='modificar_producto2(83,1)' class='btn btn-sm mb-0 btn-success btn-flat'><i class='ft-plus'></i></button><button type='button' onclick='modificar_producto_modal(83,0)' class='btn btn-sm mb-0 btn-info btn-flat'><i class='ft-minus'></i></button></td></tr><tr><td>1</td><td>NECTAR MANGO</td><td>20.00</td><td>20.00</td><td><button type='button' onclick='eliminar_producto_modal(45)' class='btn btn-sm mb-0 btn-outline-danger'><i class='ft-trash'></i></button> <button type='button' onclick='modificar_producto2(45,1)' class='btn btn-sm mb-0 btn-success btn-flat'><i class='ft-plus'></i></button><button type='button' onclick='modificar_producto_modal(45,0)' class='btn btn-sm mb-0 btn-info btn-flat'><i class='ft-minus'></i></button></td></tr><tr><td>2</td><td>AGUA CIEL</td><td>20.00</td><td>40.00</td><td><button type='button' onclick='eliminar_producto_modal(37)' class='btn btn-sm mb-0 btn-outline-danger'><i class='ft-trash'></i></button> <button type='button' onclick='modificar_producto2(37,1)' class='btn btn-sm mb-0 btn-success btn-flat'><i class='ft-plus'></i></button><button type='button' onclick='modificar_producto_modal(37,0)' class='btn btn-sm mb-0 btn-info btn-flat'><i class='ft-minus'></i></button></td></tr>. 


[2020-03-05 18:53:13]  
--------------------- Función agregar_producto() ---------------------

Persona que ingresa: 74. Nombre: PAMELA CRUZ ZAVALETA. 
Mesa seleccionada: 15. 
Id de Producto seleccionado: 7. 
Tabla: <tr><td>1</td><td>COCA COLA LIGHT LATA</td><td>30.00</td><td>30.00</td><td><button type='button' onclick='eliminar_producto_modal(166)' class='btn btn-sm mb-0 btn-outline-danger'><i class='ft-trash'></i></button> <button type='button' onclick='modificar_producto2(166,1)' class='btn btn-sm mb-0 btn-success btn-flat'><i class='ft-plus'></i></button><button type='button' onclick='modificar_producto_modal(166,0)' class='btn btn-sm mb-0 btn-info btn-flat'><i class='ft-minus'></i></button></td></tr><tr><td>2</td><td>PANINO ITALIANO</td><td>105.00</td><td>210.00</td><td><button type='button' onclick='eliminar_producto_modal(7)' class='btn btn-sm mb-0 btn-outline-danger'><i class='ft-trash'></i></button> <button type='button' onclick='modificar_producto2(7,1)' class='btn btn-sm mb-0 btn-success btn-flat'><i class='ft-plus'></i></button><button type='button' onclick='modificar_producto_modal(7,0)' class='btn btn-sm mb-0 btn-info btn-flat'><i class='ft-minus'></i></button></td></tr><tr><td>1</td><td>PIZZA HAWAII</td><td>110.00</td><td>110.00</td><td><button type='button' onclick='eliminar_producto_modal(20)' class='btn btn-sm mb-0 btn-outline-danger'><i class='ft-trash'></i></button> <button type='button' onclick='modificar_producto2(20,1)' class='btn btn-sm mb-0 btn-success btn-flat'><i class='ft-plus'></i></button><button type='button' onclick='modificar_producto_modal(20,0)' class='btn btn-sm mb-0 btn-info btn-flat'><i class='ft-minus'></i></button></td></tr><tr><td>1</td><td>AGUA DEL DIA</td><td>15.00</td><td>15.00</td><td><button type='button' onclick='eliminar_producto_modal(83)' class='btn btn-sm mb-0 btn-outline-danger'><i class='ft-trash'></i></button> <button type='button' onclick='modificar_producto2(83,1)' class='btn btn-sm mb-0 btn-success btn-flat'><i class='ft-plus'></i></button><button type='button' onclick='modificar_producto_modal(83,0)' class='btn btn-sm mb-0 btn-info btn-flat'><i class='ft-minus'></i></button></td></tr><tr><td>1</td><td>NECTAR MANGO</td><td>20.00</td><td>20.00</td><td><button type='button' onclick='eliminar_producto_modal(45)' class='btn btn-sm mb-0 btn-outline-danger'><i class='ft-trash'></i></button> <button type='button' onclick='modificar_producto2(45,1)' class='btn btn-sm mb-0 btn-success btn-flat'><i class='ft-plus'></i></button><button type='button' onclick='modificar_producto_modal(45,0)' class='btn btn-sm mb-0 btn-info btn-flat'><i class='ft-minus'></i></button></td></tr><tr><td>2</td><td>AGUA CIEL</td><td>20.00</td><td>40.00</td><td><button type='button' onclick='eliminar_producto_modal(37)' class='btn btn-sm mb-0 btn-outline-danger'><i class='ft-trash'></i></button> <button type='button' onclick='modificar_producto2(37,1)' class='btn btn-sm mb-0 btn-success btn-flat'><i class='ft-plus'></i></button><button type='button' onclick='modificar_producto_modal(37,0)' class='btn btn-sm mb-0 btn-info btn-flat'><i class='ft-minus'></i></button></td></tr>. 


[2020-03-05 18:53:26]  
--------------------- Función agregar_producto() ---------------------

Persona que ingresa: 74. Nombre: PAMELA CRUZ ZAVALETA. 
Mesa seleccionada: 15. 
Id de Producto seleccionado: 169. 
Tabla: <tr><td>1</td><td>COCA COLA LIGHT LATA</td><td>30.00</td><td>30.00</td><td><button type='button' onclick='eliminar_producto_modal(166)' class='btn btn-sm mb-0 btn-outline-danger'><i class='ft-trash'></i></button> <button type='button' onclick='modificar_producto2(166,1)' class='btn btn-sm mb-0 btn-success btn-flat'><i class='ft-plus'></i></button><button type='button' onclick='modificar_producto_modal(166,0)' class='btn btn-sm mb-0 btn-info btn-flat'><i class='ft-minus'></i></button></td></tr><tr><td>2</td><td>PANINO ITALIANO</td><td>105.00</td><td>210.00</td><td><button type='button' onclick='eliminar_producto_modal(7)' class='btn btn-sm mb-0 btn-outline-danger'><i class='ft-trash'></i></button> <button type='button' onclick='modificar_producto2(7,1)' class='btn btn-sm mb-0 btn-success btn-flat'><i class='ft-plus'></i></button><button type='button' onclick='modificar_producto_modal(7,0)' class='btn btn-sm mb-0 btn-info btn-flat'><i class='ft-minus'></i></button></td></tr><tr><td>1</td><td>PIZZA HAWAII</td><td>110.00</td><td>110.00</td><td><button type='button' onclick='eliminar_producto_modal(20)' class='btn btn-sm mb-0 btn-outline-danger'><i class='ft-trash'></i></button> <button type='button' onclick='modificar_producto2(20,1)' class='btn btn-sm mb-0 btn-success btn-flat'><i class='ft-plus'></i></button><button type='button' onclick='modificar_producto_modal(20,0)' class='btn btn-sm mb-0 btn-info btn-flat'><i class='ft-minus'></i></button></td></tr><tr><td>1</td><td>AGUA DEL DIA</td><td>15.00</td><td>15.00</td><td><button type='button' onclick='eliminar_producto_modal(83)' class='btn btn-sm mb-0 btn-outline-danger'><i class='ft-trash'></i></button> <button type='button' onclick='modificar_producto2(83,1)' class='btn btn-sm mb-0 btn-success btn-flat'><i class='ft-plus'></i></button><button type='button' onclick='modificar_producto_modal(83,0)' class='btn btn-sm mb-0 btn-info btn-flat'><i class='ft-minus'></i></button></td></tr><tr><td>1</td><td>NECTAR MANGO</td><td>20.00</td><td>20.00</td><td><button type='button' onclick='eliminar_producto_modal(45)' class='btn btn-sm mb-0 btn-outline-danger'><i class='ft-trash'></i></button> <button type='button' onclick='modificar_producto2(45,1)' class='btn btn-sm mb-0 btn-success btn-flat'><i class='ft-plus'></i></button><button type='button' onclick='modificar_producto_modal(45,0)' class='btn btn-sm mb-0 btn-info btn-flat'><i class='ft-minus'></i></button></td></tr><tr><td>2</td><td>AGUA CIEL</td><td>20.00</td><td>40.00</td><td><button type='button' onclick='eliminar_producto_modal(37)' class='btn btn-sm mb-0 btn-outline-danger'><i class='ft-trash'></i></button> <button type='button' onclick='modificar_producto2(37,1)' class='btn btn-sm mb-0 btn-success btn-flat'><i class='ft-plus'></i></button><button type='button' onclick='modificar_producto_modal(37,0)' class='btn btn-sm mb-0 btn-info btn-flat'><i class='ft-minus'></i></button></td></tr><tr><td>1</td><td>SIDRAL LATA</td><td>30.00</td><td>30.00</td><td><button type='button' onclick='eliminar_producto_modal(169)' class='btn btn-sm mb-0 btn-outline-danger'><i class='ft-trash'></i></button> <button type='button' onclick='modificar_producto2(169,1)' class='btn btn-sm mb-0 btn-success btn-flat'><i class='ft-plus'></i></button><button type='button' onclick='modificar_producto_modal(169,0)' class='btn btn-sm mb-0 btn-info btn-flat'><i class='ft-minus'></i></button></td></tr>. 


[2020-03-05 19:06:44]  
--------------------- Función getUsuarioPorPin() ---------------------

Pin de usuario ingresado: 0411. Nombre: PAMELA CRUZ ZAVALETA. 
Mesa seleccionada: 0. 
Respuesta de búsqueda de empleado: 1. 
Tabla: . 


[2020-03-05 19:06:48]  
--------------------- Función agregar_producto() ---------------------

Persona que ingresa: 74. Nombre: PAMELA CRUZ ZAVALETA. 
Mesa seleccionada: 0. 
Id de Producto seleccionado: 73. 
Tabla: <tr><td>1</td><td>CAPUCHINO</td><td>45.00</td><td>45.00</td><td><button type='button' onclick='eliminar_producto_modal(73)' class='btn btn-sm mb-0 btn-outline-danger'><i class='ft-trash'></i></button> <button type='button' onclick='modificar_producto2(73,1)' class='btn btn-sm mb-0 btn-success btn-flat'><i class='ft-plus'></i></button><button type='button' onclick='modificar_producto_modal(73,0)' class='btn btn-sm mb-0 btn-info btn-flat'><i class='ft-minus'></i></button></td></tr>. 


[2020-03-05 19:18:23]  
--------------------- Función getUsuarioPorPin() ---------------------

Pin de usuario ingresado: 0411. Nombre: PAMELA CRUZ ZAVALETA. 
Mesa seleccionada: 15. 
Respuesta de búsqueda de empleado: 1. 
Tabla: <tr><td>1</td><td>COCA COLA LIGHT LATA</td><td>30.00</td><td>30.00</td><td><button type='button' onclick='eliminar_producto_modal(166)' class='btn btn-sm mb-0 btn-outline-danger'><i class='ft-trash'></i></button> <button type='button' onclick='modificar_producto2(166,1)' class='btn btn-sm mb-0 btn-success btn-flat'><i class='ft-plus'></i></button><button type='button' onclick='modificar_producto_modal(166,0)' class='btn btn-sm mb-0 btn-info btn-flat'><i class='ft-minus'></i></button></td></tr><tr><td>2</td><td>PANINO ITALIANO</td><td>105.00</td><td>210.00</td><td><button type='button' onclick='eliminar_producto_modal(7)' class='btn btn-sm mb-0 btn-outline-danger'><i class='ft-trash'></i></button> <button type='button' onclick='modificar_producto2(7,1)' class='btn btn-sm mb-0 btn-success btn-flat'><i class='ft-plus'></i></button><button type='button' onclick='modificar_producto_modal(7,0)' class='btn btn-sm mb-0 btn-info btn-flat'><i class='ft-minus'></i></button></td></tr><tr><td>1</td><td>PIZZA HAWAII</td><td>110.00</td><td>110.00</td><td><button type='button' onclick='eliminar_producto_modal(20)' class='btn btn-sm mb-0 btn-outline-danger'><i class='ft-trash'></i></button> <button type='button' onclick='modificar_producto2(20,1)' class='btn btn-sm mb-0 btn-success btn-flat'><i class='ft-plus'></i></button><button type='button' onclick='modificar_producto_modal(20,0)' class='btn btn-sm mb-0 btn-info btn-flat'><i class='ft-minus'></i></button></td></tr><tr><td>1</td><td>AGUA DEL DIA</td><td>15.00</td><td>15.00</td><td><button type='button' onclick='eliminar_producto_modal(83)' class='btn btn-sm mb-0 btn-outline-danger'><i class='ft-trash'></i></button> <button type='button' onclick='modificar_producto2(83,1)' class='btn btn-sm mb-0 btn-success btn-flat'><i class='ft-plus'></i></button><button type='button' onclick='modificar_producto_modal(83,0)' class='btn btn-sm mb-0 btn-info btn-flat'><i class='ft-minus'></i></button></td></tr><tr><td>1</td><td>NECTAR MANGO</td><td>20.00</td><td>20.00</td><td><button type='button' onclick='eliminar_producto_modal(45)' class='btn btn-sm mb-0 btn-outline-danger'><i class='ft-trash'></i></button> <button type='button' onclick='modificar_producto2(45,1)' class='btn btn-sm mb-0 btn-success btn-flat'><i class='ft-plus'></i></button><button type='button' onclick='modificar_producto_modal(45,0)' class='btn btn-sm mb-0 btn-info btn-flat'><i class='ft-minus'></i></button></td></tr><tr><td>2</td><td>AGUA CIEL</td><td>20.00</td><td>40.00</td><td><button type='button' onclick='eliminar_producto_modal(37)' class='btn btn-sm mb-0 btn-outline-danger'><i class='ft-trash'></i></button> <button type='button' onclick='modificar_producto2(37,1)' class='btn btn-sm mb-0 btn-success btn-flat'><i class='ft-plus'></i></button><button type='button' onclick='modificar_producto_modal(37,0)' class='btn btn-sm mb-0 btn-info btn-flat'><i class='ft-minus'></i></button></td></tr><tr><td>1</td><td>SIDRAL LATA</td><td>30.00</td><td>30.00</td><td><button type='button' onclick='eliminar_producto_modal(169)' class='btn btn-sm mb-0 btn-outline-danger'><i class='ft-trash'></i></button> <button type='button' onclick='modificar_producto2(169,1)' class='btn btn-sm mb-0 btn-success btn-flat'><i class='ft-plus'></i></button><button type='button' onclick='modificar_producto_modal(169,0)' class='btn btn-sm mb-0 btn-info btn-flat'><i class='ft-minus'></i></button></td></tr>. 


[2020-03-05 20:00:50]  
--------------------- Función getUsuarioPorPin() ---------------------

Pin de usuario ingresado: 0411. Nombre: PAMELA CRUZ ZAVALETA. 
Mesa seleccionada: 0. 
Respuesta de búsqueda de empleado: 1. 
Tabla: . 


[2020-03-05 20:00:59]  
--------------------- Función getUsuarioPorPin() ---------------------

Pin de usuario ingresado: 0411. Nombre: PAMELA CRUZ ZAVALETA. 
Mesa seleccionada: 0. 
Respuesta de búsqueda de empleado: 1. 
Tabla: . 


[2020-03-05 20:01:12]  
--------------------- Función agregar_producto() ---------------------

Persona que ingresa: 74. Nombre: PAMELA CRUZ ZAVALETA. 
Mesa seleccionada: 0. 
Id de Producto seleccionado: 92. 
Tabla: <tr><td>1</td><td>PANINO ESPAÑOL</td><td>65.00</td><td>65.00</td><td><button type='button' onclick='eliminar_producto_modal(92)' class='btn btn-sm mb-0 btn-outline-danger'><i class='ft-trash'></i></button> <button type='button' onclick='modificar_producto2(92,1)' class='btn btn-sm mb-0 btn-success btn-flat'><i class='ft-plus'></i></button><button type='button' onclick='modificar_producto_modal(92,0)' class='btn btn-sm mb-0 btn-info btn-flat'><i class='ft-minus'></i></button></td></tr>. 


[2020-03-05 20:02:01]  
--------------------- Función getUsuarioPorPin() ---------------------

Pin de usuario ingresado: 0325. Nombre: Karla Danae Martinez Campos. 
Mesa seleccionada: 12. 
Respuesta de búsqueda de empleado: 1. 
Tabla: <tr><td>1</td><td>PIZZA PEPE</td><td>73.00</td><td>73.00</td><td><button type='button' onclick='eliminar_producto_modal(85)' class='btn btn-sm mb-0 btn-outline-danger'><i class='ft-trash'></i></button> <button type='button' onclick='modificar_producto2(85,1)' class='btn btn-sm mb-0 btn-success btn-flat'><i class='ft-plus'></i></button><button type='button' onclick='modificar_producto_modal(85,0)' class='btn btn-sm mb-0 btn-info btn-flat'><i class='ft-minus'></i></button></td></tr>. 


[2020-03-05 20:02:12]  
--------------------- Función eliminar_producto() ---------------------

Persona que ingresa: 73. Nombre: Karla Danae Martinez Campos. 
Mesa seleccionada: 12. 
Registro eliminado: Producto Eliminado: 85. Nombre del Producto: PIZZA PEPE. 
Tabla: . 


[2020-03-05 20:14:17]  
--------------------- Función getUsuarioPorPin() ---------------------

Pin de usuario ingresado: 784512. Nombre: No existe. 
Mesa seleccionada: 0. 
Respuesta de búsqueda de empleado: . 
Tabla: . 


[2020-03-05 20:14:25]  
--------------------- Función getUsuarioPorPin() ---------------------

Pin de usuario ingresado: 7845. Nombre: CECILIA GUEVARA. 
Mesa seleccionada: 0. 
Respuesta de búsqueda de empleado: 1. 
Tabla: . 

