
[2019-12-24 13:45:00]  
--------------------- Función getUsuarioPorPin() ---------------------

Pin de usuario ingresado: 1008. Nombre: Yeralmed Tecante. 
Mesa seleccionada: 0. 
Respuesta de búsqueda de empleado: 1. 
Tabla: . 


[2019-12-24 13:45:08]  
--------------------- Función agregar_producto() ---------------------

Persona que ingresa: 62. Nombre: Yeralmed Tecante. 
Mesa seleccionada: 0. 
Id de Producto seleccionado: 168. 
Tabla: <tr><td>1</td><td>FANTA NARANJA LATA</td><td>30.00</td><td>30.00</td><td><button type='button' onclick='eliminar_producto_modal(168)' class='btn btn-sm mb-0 btn-outline-danger'><i class='ft-trash'></i></button> <button type='button' onclick='modificar_producto2(168,1)' class='btn btn-sm mb-0 btn-success btn-flat'><i class='ft-plus'></i></button><button type='button' onclick='modificar_producto_modal(168,0)' class='btn btn-sm mb-0 btn-info btn-flat'><i class='ft-minus'></i></button></td></tr>. 


[2019-12-24 14:26:19]  
--------------------- Función getUsuarioPorPin() ---------------------

Pin de usuario ingresado: 1008. Nombre: Yeralmed Tecante. 
Mesa seleccionada: 0. 
Respuesta de búsqueda de empleado: 1. 
Tabla: . 


[2019-12-24 14:26:23]  
--------------------- Función agregar_producto() ---------------------

Persona que ingresa: 62. Nombre: Yeralmed Tecante. 
Mesa seleccionada: 0. 
Id de Producto seleccionado: 170. 
Tabla: <tr><td>1</td><td>DELAWARE LATA</td><td>30.00</td><td>30.00</td><td><button type='button' onclick='eliminar_producto_modal(170)' class='btn btn-sm mb-0 btn-outline-danger'><i class='ft-trash'></i></button> <button type='button' onclick='modificar_producto2(170,1)' class='btn btn-sm mb-0 btn-success btn-flat'><i class='ft-plus'></i></button><button type='button' onclick='modificar_producto_modal(170,0)' class='btn btn-sm mb-0 btn-info btn-flat'><i class='ft-minus'></i></button></td></tr>. 


[2019-12-24 14:30:53]  
--------------------- Función getUsuarioPorPin() ---------------------

Pin de usuario ingresado: 1008. Nombre: Yeralmed Tecante. 
Mesa seleccionada: 1. 
Respuesta de búsqueda de empleado: 1. 
Tabla: . 


[2019-12-24 14:30:59]  
--------------------- Función agregar_producto() ---------------------

Persona que ingresa: 62. Nombre: Yeralmed Tecante. 
Mesa seleccionada: 1. 
Id de Producto seleccionado: 163. 
Tabla: <tr><td>1</td><td>COCA COLA LATA</td><td>30.00</td><td>30.00</td><td><button type='button' onclick='eliminar_producto_modal(163)' class='btn btn-sm mb-0 btn-outline-danger'><i class='ft-trash'></i></button> <button type='button' onclick='modificar_producto2(163,1)' class='btn btn-sm mb-0 btn-success btn-flat'><i class='ft-plus'></i></button><button type='button' onclick='modificar_producto_modal(163,0)' class='btn btn-sm mb-0 btn-info btn-flat'><i class='ft-minus'></i></button></td></tr>. 


[2019-12-24 14:31:00]  
--------------------- Función agregar_producto() ---------------------

Persona que ingresa: 62. Nombre: Yeralmed Tecante. 
Mesa seleccionada: 1. 
Id de Producto seleccionado: 167. 
Tabla: <tr><td>1</td><td>COCA COLA LATA</td><td>30.00</td><td>30.00</td><td><button type='button' onclick='eliminar_producto_modal(163)' class='btn btn-sm mb-0 btn-outline-danger'><i class='ft-trash'></i></button> <button type='button' onclick='modificar_producto2(163,1)' class='btn btn-sm mb-0 btn-success btn-flat'><i class='ft-plus'></i></button><button type='button' onclick='modificar_producto_modal(163,0)' class='btn btn-sm mb-0 btn-info btn-flat'><i class='ft-minus'></i></button></td></tr><tr><td>1</td><td>FRESCA LATA</td><td>30.00</td><td>30.00</td><td><button type='button' onclick='eliminar_producto_modal(167)' class='btn btn-sm mb-0 btn-outline-danger'><i class='ft-trash'></i></button> <button type='button' onclick='modificar_producto2(167,1)' class='btn btn-sm mb-0 btn-success btn-flat'><i class='ft-plus'></i></button><button type='button' onclick='modificar_producto_modal(167,0)' class='btn btn-sm mb-0 btn-info btn-flat'><i class='ft-minus'></i></button></td></tr>. 


[2019-12-24 14:31:00]  
--------------------- Función agregar_producto() ---------------------

Persona que ingresa: 62. Nombre: Yeralmed Tecante. 
Mesa seleccionada: 1. 
Id de Producto seleccionado: 167. 
Tabla: <tr><td>1</td><td>COCA COLA LATA</td><td>30.00</td><td>30.00</td><td><button type='button' onclick='eliminar_producto_modal(163)' class='btn btn-sm mb-0 btn-outline-danger'><i class='ft-trash'></i></button> <button type='button' onclick='modificar_producto2(163,1)' class='btn btn-sm mb-0 btn-success btn-flat'><i class='ft-plus'></i></button><button type='button' onclick='modificar_producto_modal(163,0)' class='btn btn-sm mb-0 btn-info btn-flat'><i class='ft-minus'></i></button></td></tr><tr><td>2</td><td>FRESCA LATA</td><td>30.00</td><td>60.00</td><td><button type='button' onclick='eliminar_producto_modal(167)' class='btn btn-sm mb-0 btn-outline-danger'><i class='ft-trash'></i></button> <button type='button' onclick='modificar_producto2(167,1)' class='btn btn-sm mb-0 btn-success btn-flat'><i class='ft-plus'></i></button><button type='button' onclick='modificar_producto_modal(167,0)' class='btn btn-sm mb-0 btn-info btn-flat'><i class='ft-minus'></i></button></td></tr>. 


[2019-12-24 14:50:12]  
--------------------- Función getUsuarioPorPin() ---------------------

Pin de usuario ingresado: 7717. Nombre: ABIGAIL SANCHEZ. 
Mesa seleccionada: 6. 
Respuesta de búsqueda de empleado: 1. 
Tabla: . 


[2019-12-24 14:50:17]  
--------------------- Función agregar_producto() ---------------------

Persona que ingresa: 23. Nombre: ABIGAIL SANCHEZ. 
Mesa seleccionada: 6. 
Id de Producto seleccionado: 83. 
Tabla: <tr><td>1</td><td>AGUA DEL DIA</td><td>15.00</td><td>15.00</td><td><button type='button' onclick='eliminar_producto_modal(83)' class='btn btn-sm mb-0 btn-outline-danger'><i class='ft-trash'></i></button> <button type='button' onclick='modificar_producto2(83,1)' class='btn btn-sm mb-0 btn-success btn-flat'><i class='ft-plus'></i></button><button type='button' onclick='modificar_producto_modal(83,0)' class='btn btn-sm mb-0 btn-info btn-flat'><i class='ft-minus'></i></button></td></tr>. 


[2019-12-24 14:50:17]  
--------------------- Función agregar_producto() ---------------------

Persona que ingresa: 23. Nombre: ABIGAIL SANCHEZ. 
Mesa seleccionada: 6. 
Id de Producto seleccionado: 83. 
Tabla: <tr><td>2</td><td>AGUA DEL DIA</td><td>15.00</td><td>30.00</td><td><button type='button' onclick='eliminar_producto_modal(83)' class='btn btn-sm mb-0 btn-outline-danger'><i class='ft-trash'></i></button> <button type='button' onclick='modificar_producto2(83,1)' class='btn btn-sm mb-0 btn-success btn-flat'><i class='ft-plus'></i></button><button type='button' onclick='modificar_producto_modal(83,0)' class='btn btn-sm mb-0 btn-info btn-flat'><i class='ft-minus'></i></button></td></tr>. 


[2019-12-24 14:50:25]  
--------------------- Función agregar_producto() ---------------------

Persona que ingresa: 23. Nombre: ABIGAIL SANCHEZ. 
Mesa seleccionada: 6. 
Id de Producto seleccionado: 61. 
Tabla: <tr><td>2</td><td>AGUA DEL DIA</td><td>15.00</td><td>30.00</td><td><button type='button' onclick='eliminar_producto_modal(83)' class='btn btn-sm mb-0 btn-outline-danger'><i class='ft-trash'></i></button> <button type='button' onclick='modificar_producto2(83,1)' class='btn btn-sm mb-0 btn-success btn-flat'><i class='ft-plus'></i></button><button type='button' onclick='modificar_producto_modal(83,0)' class='btn btn-sm mb-0 btn-info btn-flat'><i class='ft-minus'></i></button></td></tr><tr><td>1</td><td>ORDEN DE PAPAS</td><td>55.00</td><td>55.00</td><td><button type='button' onclick='eliminar_producto_modal(61)' class='btn btn-sm mb-0 btn-outline-danger'><i class='ft-trash'></i></button> <button type='button' onclick='modificar_producto2(61,1)' class='btn btn-sm mb-0 btn-success btn-flat'><i class='ft-plus'></i></button><button type='button' onclick='modificar_producto_modal(61,0)' class='btn btn-sm mb-0 btn-info btn-flat'><i class='ft-minus'></i></button></td></tr>. 


[2019-12-24 15:11:09]  
--------------------- Función getUsuarioPorPin() ---------------------

Pin de usuario ingresado: 1008. Nombre: Yeralmed Tecante. 
Mesa seleccionada: 9. 
Respuesta de búsqueda de empleado: 1. 
Tabla: . 


[2019-12-24 15:11:21]  
--------------------- Función agregar_producto() ---------------------

Persona que ingresa: 62. Nombre: Yeralmed Tecante. 
Mesa seleccionada: 9. 
Id de Producto seleccionado: 176. 
Tabla: <tr><td>1</td><td>LATTE</td><td>35.00</td><td>35.00</td><td><button type='button' onclick='eliminar_producto_modal(176)' class='btn btn-sm mb-0 btn-outline-danger'><i class='ft-trash'></i></button> <button type='button' onclick='modificar_producto2(176,1)' class='btn btn-sm mb-0 btn-success btn-flat'><i class='ft-plus'></i></button><button type='button' onclick='modificar_producto_modal(176,0)' class='btn btn-sm mb-0 btn-info btn-flat'><i class='ft-minus'></i></button></td></tr>. 


[2019-12-24 15:11:30]  
--------------------- Función agregar_producto() ---------------------

Persona que ingresa: 62. Nombre: Yeralmed Tecante. 
Mesa seleccionada: 9. 
Id de Producto seleccionado: 73. 
Tabla: <tr><td>1</td><td>LATTE</td><td>35.00</td><td>35.00</td><td><button type='button' onclick='eliminar_producto_modal(176)' class='btn btn-sm mb-0 btn-outline-danger'><i class='ft-trash'></i></button> <button type='button' onclick='modificar_producto2(176,1)' class='btn btn-sm mb-0 btn-success btn-flat'><i class='ft-plus'></i></button><button type='button' onclick='modificar_producto_modal(176,0)' class='btn btn-sm mb-0 btn-info btn-flat'><i class='ft-minus'></i></button></td></tr><tr><td>1</td><td>CAPUCHINO</td><td>45.00</td><td>45.00</td><td><button type='button' onclick='eliminar_producto_modal(73)' class='btn btn-sm mb-0 btn-outline-danger'><i class='ft-trash'></i></button> <button type='button' onclick='modificar_producto2(73,1)' class='btn btn-sm mb-0 btn-success btn-flat'><i class='ft-plus'></i></button><button type='button' onclick='modificar_producto_modal(73,0)' class='btn btn-sm mb-0 btn-info btn-flat'><i class='ft-minus'></i></button></td></tr>. 


[2019-12-24 15:22:44]  
--------------------- Función getUsuarioPorPin() ---------------------

Pin de usuario ingresado: 1008. Nombre: Yeralmed Tecante. 
Mesa seleccionada: 0. 
Respuesta de búsqueda de empleado: 1. 
Tabla: . 


[2019-12-24 15:22:46]  
--------------------- Función agregar_producto() ---------------------

Persona que ingresa: 62. Nombre: Yeralmed Tecante. 
Mesa seleccionada: 0. 
Id de Producto seleccionado: 61. 
Tabla: <tr><td>1</td><td>ORDEN DE PAPAS</td><td>55.00</td><td>55.00</td><td><button type='button' onclick='eliminar_producto_modal(61)' class='btn btn-sm mb-0 btn-outline-danger'><i class='ft-trash'></i></button> <button type='button' onclick='modificar_producto2(61,1)' class='btn btn-sm mb-0 btn-success btn-flat'><i class='ft-plus'></i></button><button type='button' onclick='modificar_producto_modal(61,0)' class='btn btn-sm mb-0 btn-info btn-flat'><i class='ft-minus'></i></button></td></tr>. 


[2019-12-24 15:22:53]  
--------------------- Función agregar_producto() ---------------------

Persona que ingresa: 62. Nombre: Yeralmed Tecante. 
Mesa seleccionada: 0. 
Id de Producto seleccionado: 172. 
Tabla: <tr><td>1</td><td>ORDEN DE PAPAS</td><td>55.00</td><td>55.00</td><td><button type='button' onclick='eliminar_producto_modal(61)' class='btn btn-sm mb-0 btn-outline-danger'><i class='ft-trash'></i></button> <button type='button' onclick='modificar_producto2(61,1)' class='btn btn-sm mb-0 btn-success btn-flat'><i class='ft-plus'></i></button><button type='button' onclick='modificar_producto_modal(61,0)' class='btn btn-sm mb-0 btn-info btn-flat'><i class='ft-minus'></i></button></td></tr><tr><td>1</td><td>MINERAL LATA</td><td>30.00</td><td>30.00</td><td><button type='button' onclick='eliminar_producto_modal(172)' class='btn btn-sm mb-0 btn-outline-danger'><i class='ft-trash'></i></button> <button type='button' onclick='modificar_producto2(172,1)' class='btn btn-sm mb-0 btn-success btn-flat'><i class='ft-plus'></i></button><button type='button' onclick='modificar_producto_modal(172,0)' class='btn btn-sm mb-0 btn-info btn-flat'><i class='ft-minus'></i></button></td></tr>. 


[2019-12-24 16:00:54]  
--------------------- Función getUsuarioPorPin() ---------------------

Pin de usuario ingresado: 2804. Nombre: VALERIA CHANTES. 
Mesa seleccionada: 6. 
Respuesta de búsqueda de empleado: 1. 
Tabla: <tr><td>2</td><td>AGUA DEL DIA</td><td>15.00</td><td>30.00</td><td><button type='button' onclick='eliminar_producto_modal(83)' class='btn btn-sm mb-0 btn-outline-danger'><i class='ft-trash'></i></button> <button type='button' onclick='modificar_producto2(83,1)' class='btn btn-sm mb-0 btn-success btn-flat'><i class='ft-plus'></i></button><button type='button' onclick='modificar_producto_modal(83,0)' class='btn btn-sm mb-0 btn-info btn-flat'><i class='ft-minus'></i></button></td></tr><tr><td>1</td><td>ORDEN DE PAPAS</td><td>55.00</td><td>55.00</td><td><button type='button' onclick='eliminar_producto_modal(61)' class='btn btn-sm mb-0 btn-outline-danger'><i class='ft-trash'></i></button> <button type='button' onclick='modificar_producto2(61,1)' class='btn btn-sm mb-0 btn-success btn-flat'><i class='ft-plus'></i></button><button type='button' onclick='modificar_producto_modal(61,0)' class='btn btn-sm mb-0 btn-info btn-flat'><i class='ft-minus'></i></button></td></tr>. 


[2019-12-24 16:01:05]  
--------------------- Función agregar_producto() ---------------------

Persona que ingresa: 25. Nombre: VALERIA CHANTES. 
Mesa seleccionada: 6. 
Id de Producto seleccionado: 43. 
Tabla: <tr><td>2</td><td>AGUA DEL DIA</td><td>15.00</td><td>30.00</td><td><button type='button' onclick='eliminar_producto_modal(83)' class='btn btn-sm mb-0 btn-outline-danger'><i class='ft-trash'></i></button> <button type='button' onclick='modificar_producto2(83,1)' class='btn btn-sm mb-0 btn-success btn-flat'><i class='ft-plus'></i></button><button type='button' onclick='modificar_producto_modal(83,0)' class='btn btn-sm mb-0 btn-info btn-flat'><i class='ft-minus'></i></button></td></tr><tr><td>1</td><td>ORDEN DE PAPAS</td><td>55.00</td><td>55.00</td><td><button type='button' onclick='eliminar_producto_modal(61)' class='btn btn-sm mb-0 btn-outline-danger'><i class='ft-trash'></i></button> <button type='button' onclick='modificar_producto2(61,1)' class='btn btn-sm mb-0 btn-success btn-flat'><i class='ft-plus'></i></button><button type='button' onclick='modificar_producto_modal(61,0)' class='btn btn-sm mb-0 btn-info btn-flat'><i class='ft-minus'></i></button></td></tr><tr><td>1</td><td>NECTAR MANZANA ROJA</td><td>20.00</td><td>20.00</td><td><button type='button' onclick='eliminar_producto_modal(43)' class='btn btn-sm mb-0 btn-outline-danger'><i class='ft-trash'></i></button> <button type='button' onclick='modificar_producto2(43,1)' class='btn btn-sm mb-0 btn-success btn-flat'><i class='ft-plus'></i></button><button type='button' onclick='modificar_producto_modal(43,0)' class='btn btn-sm mb-0 btn-info btn-flat'><i class='ft-minus'></i></button></td></tr>. 


[2019-12-24 16:01:08]  
--------------------- Función agregar_producto() ---------------------

Persona que ingresa: 25. Nombre: VALERIA CHANTES. 
Mesa seleccionada: 6. 
Id de Producto seleccionado: 37. 
Tabla: <tr><td>2</td><td>AGUA DEL DIA</td><td>15.00</td><td>30.00</td><td><button type='button' onclick='eliminar_producto_modal(83)' class='btn btn-sm mb-0 btn-outline-danger'><i class='ft-trash'></i></button> <button type='button' onclick='modificar_producto2(83,1)' class='btn btn-sm mb-0 btn-success btn-flat'><i class='ft-plus'></i></button><button type='button' onclick='modificar_producto_modal(83,0)' class='btn btn-sm mb-0 btn-info btn-flat'><i class='ft-minus'></i></button></td></tr><tr><td>1</td><td>ORDEN DE PAPAS</td><td>55.00</td><td>55.00</td><td><button type='button' onclick='eliminar_producto_modal(61)' class='btn btn-sm mb-0 btn-outline-danger'><i class='ft-trash'></i></button> <button type='button' onclick='modificar_producto2(61,1)' class='btn btn-sm mb-0 btn-success btn-flat'><i class='ft-plus'></i></button><button type='button' onclick='modificar_producto_modal(61,0)' class='btn btn-sm mb-0 btn-info btn-flat'><i class='ft-minus'></i></button></td></tr><tr><td>1</td><td>NECTAR MANZANA ROJA</td><td>20.00</td><td>20.00</td><td><button type='button' onclick='eliminar_producto_modal(43)' class='btn btn-sm mb-0 btn-outline-danger'><i class='ft-trash'></i></button> <button type='button' onclick='modificar_producto2(43,1)' class='btn btn-sm mb-0 btn-success btn-flat'><i class='ft-plus'></i></button><button type='button' onclick='modificar_producto_modal(43,0)' class='btn btn-sm mb-0 btn-info btn-flat'><i class='ft-minus'></i></button></td></tr><tr><td>1</td><td>AGUA CIEL</td><td>20.00</td><td>20.00</td><td><button type='button' onclick='eliminar_producto_modal(37)' class='btn btn-sm mb-0 btn-outline-danger'><i class='ft-trash'></i></button> <button type='button' onclick='modificar_producto2(37,1)' class='btn btn-sm mb-0 btn-success btn-flat'><i class='ft-plus'></i></button><button type='button' onclick='modificar_producto_modal(37,0)' class='btn btn-sm mb-0 btn-info btn-flat'><i class='ft-minus'></i></button></td></tr>. 


[2019-12-24 16:13:32]  
--------------------- Función getUsuarioPorPin() ---------------------

Pin de usuario ingresado: 1008. Nombre: Yeralmed Tecante. 
Mesa seleccionada: 9. 
Respuesta de búsqueda de empleado: 1. 
Tabla: <tr><td>1</td><td>LATTE</td><td>35.00</td><td>35.00</td><td><button type='button' onclick='eliminar_producto_modal(176)' class='btn btn-sm mb-0 btn-outline-danger'><i class='ft-trash'></i></button> <button type='button' onclick='modificar_producto2(176,1)' class='btn btn-sm mb-0 btn-success btn-flat'><i class='ft-plus'></i></button><button type='button' onclick='modificar_producto_modal(176,0)' class='btn btn-sm mb-0 btn-info btn-flat'><i class='ft-minus'></i></button></td></tr><tr><td>1</td><td>CAPUCHINO</td><td>45.00</td><td>45.00</td><td><button type='button' onclick='eliminar_producto_modal(73)' class='btn btn-sm mb-0 btn-outline-danger'><i class='ft-trash'></i></button> <button type='button' onclick='modificar_producto2(73,1)' class='btn btn-sm mb-0 btn-success btn-flat'><i class='ft-plus'></i></button><button type='button' onclick='modificar_producto_modal(73,0)' class='btn btn-sm mb-0 btn-info btn-flat'><i class='ft-minus'></i></button></td></tr>. 


[2019-12-24 16:23:15]  
--------------------- Función getUsuarioPorPin() ---------------------

Pin de usuario ingresado: 1008. Nombre: Yeralmed Tecante. 
Mesa seleccionada: 0. 
Respuesta de búsqueda de empleado: 1. 
Tabla: . 


[2019-12-24 16:23:17]  
--------------------- Función agregar_producto() ---------------------

Persona que ingresa: 62. Nombre: Yeralmed Tecante. 
Mesa seleccionada: 0. 
Id de Producto seleccionado: 37. 
Tabla: <tr><td>1</td><td>AGUA CIEL</td><td>20.00</td><td>20.00</td><td><button type='button' onclick='eliminar_producto_modal(37)' class='btn btn-sm mb-0 btn-outline-danger'><i class='ft-trash'></i></button> <button type='button' onclick='modificar_producto2(37,1)' class='btn btn-sm mb-0 btn-success btn-flat'><i class='ft-plus'></i></button><button type='button' onclick='modificar_producto_modal(37,0)' class='btn btn-sm mb-0 btn-info btn-flat'><i class='ft-minus'></i></button></td></tr>. 


[2019-12-24 16:23:18]  
--------------------- Función agregar_producto() ---------------------

Persona que ingresa: 62. Nombre: Yeralmed Tecante. 
Mesa seleccionada: 0. 
Id de Producto seleccionado: 37. 
Tabla: <tr><td>2</td><td>AGUA CIEL</td><td>20.00</td><td>40.00</td><td><button type='button' onclick='eliminar_producto_modal(37)' class='btn btn-sm mb-0 btn-outline-danger'><i class='ft-trash'></i></button> <button type='button' onclick='modificar_producto2(37,1)' class='btn btn-sm mb-0 btn-success btn-flat'><i class='ft-plus'></i></button><button type='button' onclick='modificar_producto_modal(37,0)' class='btn btn-sm mb-0 btn-info btn-flat'><i class='ft-minus'></i></button></td></tr>. 

